src/transcript
# vsim -c work.top "+UVM_TESTNAME=async_fifo_test5" 
# Start time: 22:00:57 on Oct 12,2025
# ** Note: (vsim-8009) Loading existing optimized design _opt
# //  Questa Sim
# //  Version 10.6c linux Jul 25 2017
# //
# //  Copyright 1991-2017 Mentor Graphics Corporation
# //  All Rights Reserved.
# //
# //  QuestaSim and its associated documentation contain trade
# //  secrets and commercial or financial information that are the property of
# //  Mentor Graphics Corporation and are privileged, confidential,
# //  and exempt from disclosure under the Freedom of Information Act,
# //  5 U.S.C. Section 552. Furthermore, this information
# //  is prohibited from disclosure under the Trade Secrets Act,
# //  18 U.S.C. Section 1905.
# //
# Loading sv_std.std
# Loading work.async_fifo_interface(fast)
# Loading mtiUvm.uvm_pkg
# Loading work.async_fifo_pkg(fast)
# Loading work.async_fifo_top_sv_unit(fast)
# Loading work.top(fast)
# Loading mtiUvm.questa_uvm_pkg(fast)
# Loading /tools/mentor/questasim_10.6c/questasim/uvm-1.1d/linux/uvm_dpi.so
# ----------------------------------------------------------------
# UVM-1.1d
# (C) 2007-2013 Mentor Graphics Corporation
# (C) 2007-2013 Cadence Design Systems, Inc.
# (C) 2006-2013 Synopsys, Inc.
# (C) 2011-2013 Cypress Semiconductor Corp.
# ----------------------------------------------------------------
# 
#   ***********       IMPORTANT RELEASE NOTES         ************
# 
#   You are using a version of the UVM library that has been compiled
#   with `UVM_NO_DEPRECATED undefined.
#   See http://www.eda.org/svdb/view.php?id=3313 for more details.
# 
#   You are using a version of the UVM library that has been compiled
#   with `UVM_OBJECT_MUST_HAVE_CONSTRUCTOR undefined.
#   See http://www.eda.org/svdb/view.php?id=3770 for more details.
# 
#       (Specify +UVM_NO_RELNOTES to turn off this notice)
# 
# UVM_INFO verilog_src/questa_uvm_pkg-1.2/src/questa_uvm_pkg.sv(215) @ 0: reporter [Questa UVM] QUESTA_UVM-1.2.3
# UVM_INFO verilog_src/questa_uvm_pkg-1.2/src/questa_uvm_pkg.sv(217) @ 0: reporter [Questa UVM]  questa_uvm::init(+struct)
# UVM_INFO @ 0: reporter [RNTST] Running test async_fifo_test5...
# UVM_INFO @ 0: reporter [UVMTOP] UVM testbench topology:
# ----------------------------------------------------------------------
# Name                       Type                            Size  Value
# ----------------------------------------------------------------------
# uvm_test_top               async_fifo_test5                -     @471 
#   env                      async_fifo_environment          -     @478 
#     rd_agt                 async_fifo_read_agent           -     @496 
#       read_driv            async_fifo_read_driver          -     @772 
#         rsp_port           uvm_analysis_port               -     @787 
#         seq_item_port      uvm_seq_item_pull_port          -     @779 
#       read_mon             async_fifo_read_monitor         -     @795 
#         read_mon_port      uvm_analysis_port               -     @802 
#       read_seqr            async_fifo_read_sequencer       -     @663 
#         rsp_export         uvm_analysis_export             -     @670 
#         seq_item_export    uvm_seq_item_pull_imp           -     @764 
#         arbitration_queue  array                           0     -    
#         lock_queue         array                           0     -    
#         num_last_reqs      integral                        32    'd1  
#         num_last_rsps      integral                        32    'd1  
#     scb                    async_fifo_scoreboard           -     @526 
#       read_scb_port        uvm_analysis_imp_read_mon_scb   -     @541 
#       write_scb_port       uvm_analysis_imp_write_mon_scb  -     @533 
#     sub                    async_fifo_subscriber           -     @503 
#       cov_read_mon_port    uvm_analysis_imp_read_mon_cg    -     @518 
#       cov_write_mon_port   uvm_analysis_imp_write_mon_cg   -     @510 
#     v_seqr                 async_fifo_virtual_sequencer    -     @549 
#       rsp_export           uvm_analysis_export             -     @556 
#       seq_item_export      uvm_seq_item_pull_imp           -     @650 
#       arbitration_queue    array                           0     -    
#       lock_queue           array                           0     -    
#       num_last_reqs        integral                        32    'd1  
#       num_last_rsps        integral                        32    'd1  
#     wr_agt                 async_fifo_write_agent          -     @489 
#       write_driv           async_fifo_write_driver         -     @936 
#         rsp_port           uvm_analysis_port               -     @951 
#         seq_item_port      uvm_seq_item_pull_port          -     @943 
#       write_mon            async_fifo_write_monitor        -     @959 
#         write_mon_port     uvm_analysis_port               -     @966 
#       write_seqr           async_fifo_write_sequencer      -     @827 
#         rsp_export         uvm_analysis_export             -     @834 
#         seq_item_export    uvm_seq_item_pull_imp           -     @928 
#         arbitration_queue  array                           0     -    
#         lock_queue         array                           0     -    
#         num_last_reqs      integral                        32    'd1  
#         num_last_rsps      integral                        32    'd1  
# ----------------------------------------------------------------------
# 
# UVM_INFO async_fifo_virtual_sequence.sv(271) @ 0: reporter@@v_seq [async_fifo_virtual_sequence] >>> Running Testcase 5 <<<
# 
#  DUT : @10 | read_data =   x
# 
# 
# <-------------------------------------------------------------------------------------------->
# 
# WRITE_MON: 15 | RST=0 | EN=0 | DATA=11 | FULL=0
# <============================ WRITE PASS ===========================>
# <-------------------------------------------------------------------------------------------->
# 
# 
# --- SCOREBOARD STATUS ---
# WRITE_PASS=1 | WRITE_FAIL=0 | READ_PASS=0 | READ_FAIL=0 | FIFO_SIZE=0
# 
# <-------------------------------------------------------------------------------------------->
# 
# WRITE_MON: 25 | RST=1 | EN=1 | DATA=186 | FULL=0
# <============================ WRITE PASS ===========================>
# <-------------------------------------------------------------------------------------------->
# 
# 
# --- SCOREBOARD STATUS ---
# WRITE_PASS=2 | WRITE_FAIL=0 | READ_PASS=0 | READ_FAIL=0 | FIFO_SIZE=1
# 
# 
#  DUT : @30 | read_data =   x
# 
# 
# <------------------------------------------------------------------------------------------>
# 
#  READ_MON: 30 | RST=0 | EN=0 | READ_DATA=x | EMPTY=0
# <============================ READ PASS ===========================>
# <------------------------------------------------------------------------------------------>
# 
# 
# --- SCOREBOARD STATUS ---
# WRITE_PASS=2 | WRITE_FAIL=0 | READ_PASS=1 | READ_FAIL=0 | FIFO_SIZE=1
# 
# <-------------------------------------------------------------------------------------------->
# 
# WRITE_MON: 35 | RST=1 | EN=1 | DATA=203 | FULL=0
# <============================ WRITE PASS ===========================>
# <-------------------------------------------------------------------------------------------->
# 
# 
# --- SCOREBOARD STATUS ---
# WRITE_PASS=3 | WRITE_FAIL=0 | READ_PASS=1 | READ_FAIL=0 | FIFO_SIZE=2
# 
# <-------------------------------------------------------------------------------------------->
# 
# WRITE_MON: 45 | RST=1 | EN=1 | DATA=195 | FULL=0
# <============================ WRITE PASS ===========================>
# <-------------------------------------------------------------------------------------------->
# 
# 
# --- SCOREBOARD STATUS ---
# WRITE_PASS=4 | WRITE_FAIL=0 | READ_PASS=1 | READ_FAIL=0 | FIFO_SIZE=3
# 
# 
#  DUT : @50 | read_data =   x
# 
# 
# <------------------------------------------------------------------------------------------>
# 
#  READ_MON: 50 | RST=1 | EN=0 | READ_DATA=x | EMPTY=0
# 
# --- SCOREBOARD STATUS ---
# WRITE_PASS=4 | WRITE_FAIL=0 | READ_PASS=1 | READ_FAIL=0 | FIFO_SIZE=3
# 
# <-------------------------------------------------------------------------------------------->
# 
# WRITE_MON: 55 | RST=1 | EN=1 | DATA=70 | FULL=0
# <============================ WRITE PASS ===========================>
# <-------------------------------------------------------------------------------------------->
# 
# 
# --- SCOREBOARD STATUS ---
# WRITE_PASS=5 | WRITE_FAIL=0 | READ_PASS=1 | READ_FAIL=0 | FIFO_SIZE=4
# 
# <-------------------------------------------------------------------------------------------->
# 
# WRITE_MON: 65 | RST=1 | EN=1 | DATA=15 | FULL=0
# <============================ WRITE PASS ===========================>
# <-------------------------------------------------------------------------------------------->
# 
# 
# --- SCOREBOARD STATUS ---
# WRITE_PASS=6 | WRITE_FAIL=0 | READ_PASS=1 | READ_FAIL=0 | FIFO_SIZE=5
# 
# 
#  DUT : @70 | read_data =   x
# 
# 
# <------------------------------------------------------------------------------------------>
# 
#  READ_MON: 70 | RST=1 | EN=0 | READ_DATA=x | EMPTY=0
# 
# --- SCOREBOARD STATUS ---
# WRITE_PASS=6 | WRITE_FAIL=0 | READ_PASS=1 | READ_FAIL=0 | FIFO_SIZE=5
# 
# <-------------------------------------------------------------------------------------------->
# 
# WRITE_MON: 75 | RST=1 | EN=1 | DATA=147 | FULL=0
# <============================ WRITE PASS ===========================>
# <-------------------------------------------------------------------------------------------->
# 
# 
# --- SCOREBOARD STATUS ---
# WRITE_PASS=7 | WRITE_FAIL=0 | READ_PASS=1 | READ_FAIL=0 | FIFO_SIZE=6
# 
# <-------------------------------------------------------------------------------------------->
# 
# WRITE_MON: 85 | RST=1 | EN=1 | DATA=51 | FULL=0
# <============================ WRITE PASS ===========================>
# <-------------------------------------------------------------------------------------------->
# 
# 
# --- SCOREBOARD STATUS ---
# WRITE_PASS=8 | WRITE_FAIL=0 | READ_PASS=1 | READ_FAIL=0 | FIFO_SIZE=7
# 
# 
#  DUT : @90 | read_data =   x
# 
# 
# <------------------------------------------------------------------------------------------>
# 
#  READ_MON: 90 | RST=1 | EN=0 | READ_DATA=x | EMPTY=0
# 
# --- SCOREBOARD STATUS ---
# WRITE_PASS=8 | WRITE_FAIL=0 | READ_PASS=1 | READ_FAIL=0 | FIFO_SIZE=7
# 
# <-------------------------------------------------------------------------------------------->
# 
# WRITE_MON: 95 | RST=1 | EN=1 | DATA=143 | FULL=0
# <============================ WRITE PASS ===========================>
# <-------------------------------------------------------------------------------------------->
# 
# 
# --- SCOREBOARD STATUS ---
# WRITE_PASS=9 | WRITE_FAIL=0 | READ_PASS=1 | READ_FAIL=0 | FIFO_SIZE=8
# 
# <-------------------------------------------------------------------------------------------->
# 
# WRITE_MON: 105 | RST=1 | EN=1 | DATA=76 | FULL=0
# <============================ WRITE PASS ===========================>
# <-------------------------------------------------------------------------------------------->
# 
# 
# --- SCOREBOARD STATUS ---
# WRITE_PASS=10 | WRITE_FAIL=0 | READ_PASS=1 | READ_FAIL=0 | FIFO_SIZE=9
# 
# 
#  DUT : @110 | read_data =   x
# 
# 
# <------------------------------------------------------------------------------------------>
# 
#  READ_MON: 110 | RST=1 | EN=0 | READ_DATA=x | EMPTY=0
# 
# --- SCOREBOARD STATUS ---
# WRITE_PASS=10 | WRITE_FAIL=0 | READ_PASS=1 | READ_FAIL=0 | FIFO_SIZE=9
# 
# <-------------------------------------------------------------------------------------------->
# 
# WRITE_MON: 115 | RST=1 | EN=1 | DATA=14 | FULL=0
# <============================ WRITE PASS ===========================>
# <-------------------------------------------------------------------------------------------->
# 
# 
# --- SCOREBOARD STATUS ---
# WRITE_PASS=11 | WRITE_FAIL=0 | READ_PASS=1 | READ_FAIL=0 | FIFO_SIZE=10
# 
# <-------------------------------------------------------------------------------------------->
# 
# WRITE_MON: 125 | RST=1 | EN=1 | DATA=84 | FULL=0
# <============================ WRITE PASS ===========================>
# <-------------------------------------------------------------------------------------------->
# 
# 
# --- SCOREBOARD STATUS ---
# WRITE_PASS=12 | WRITE_FAIL=0 | READ_PASS=1 | READ_FAIL=0 | FIFO_SIZE=11
# 
# 
#  DUT : @130 | read_data =   x
# 
# 
# <------------------------------------------------------------------------------------------>
# 
#  READ_MON: 130 | RST=1 | EN=0 | READ_DATA=x | EMPTY=0
# 
# --- SCOREBOARD STATUS ---
# WRITE_PASS=12 | WRITE_FAIL=0 | READ_PASS=1 | READ_FAIL=0 | FIFO_SIZE=11
# 
# <-------------------------------------------------------------------------------------------->
# 
# WRITE_MON: 135 | RST=1 | EN=1 | DATA=54 | FULL=0
# <============================ WRITE PASS ===========================>
# <-------------------------------------------------------------------------------------------->
# 
# 
# --- SCOREBOARD STATUS ---
# WRITE_PASS=13 | WRITE_FAIL=0 | READ_PASS=1 | READ_FAIL=0 | FIFO_SIZE=12
# 
# <-------------------------------------------------------------------------------------------->
# 
# WRITE_MON: 145 | RST=1 | EN=1 | DATA=62 | FULL=0
# <============================ WRITE PASS ===========================>
# <-------------------------------------------------------------------------------------------->
# 
# 
# --- SCOREBOARD STATUS ---
# WRITE_PASS=14 | WRITE_FAIL=0 | READ_PASS=1 | READ_FAIL=0 | FIFO_SIZE=13
# 
# 
#  DUT : @150 | read_data =   x
# 
# 
# <------------------------------------------------------------------------------------------>
# 
#  READ_MON: 150 | RST=1 | EN=0 | READ_DATA=x | EMPTY=0
# 
# --- SCOREBOARD STATUS ---
# WRITE_PASS=14 | WRITE_FAIL=0 | READ_PASS=1 | READ_FAIL=0 | FIFO_SIZE=13
# 
# <-------------------------------------------------------------------------------------------->
# 
# WRITE_MON: 155 | RST=1 | EN=1 | DATA=209 | FULL=0
# <============================ WRITE PASS ===========================>
# <-------------------------------------------------------------------------------------------->
# 
# 
# --- SCOREBOARD STATUS ---
# WRITE_PASS=15 | WRITE_FAIL=0 | READ_PASS=1 | READ_FAIL=0 | FIFO_SIZE=14
# 
# <-------------------------------------------------------------------------------------------->
# 
# WRITE_MON: 165 | RST=1 | EN=1 | DATA=182 | FULL=0
# <============================ WRITE PASS ===========================>
# <-------------------------------------------------------------------------------------------->
# 
# 
# --- SCOREBOARD STATUS ---
# WRITE_PASS=16 | WRITE_FAIL=0 | READ_PASS=1 | READ_FAIL=0 | FIFO_SIZE=15
# 
# 
#  DUT : @170 | read_data =   x
# 
# 
# <------------------------------------------------------------------------------------------>
# 
#  READ_MON: 170 | RST=1 | EN=0 | READ_DATA=x | EMPTY=0
# 
# --- SCOREBOARD STATUS ---
# WRITE_PASS=16 | WRITE_FAIL=0 | READ_PASS=1 | READ_FAIL=0 | FIFO_SIZE=15
# 
# <-------------------------------------------------------------------------------------------->
# 
# WRITE_MON: 175 | RST=1 | EN=1 | DATA=245 | FULL=0
# <============================ WRITE PASS ===========================>
# <-------------------------------------------------------------------------------------------->
# 
# 
# --- SCOREBOARD STATUS ---
# WRITE_PASS=17 | WRITE_FAIL=0 | READ_PASS=1 | READ_FAIL=0 | FIFO_SIZE=16
# 
# <-------------------------------------------------------------------------------------------->
# 
# WRITE_MON: 185 | RST=1 | EN=0 | DATA=85 | FULL=1
# 
# --- SCOREBOARD STATUS ---
# WRITE_PASS=17 | WRITE_FAIL=0 | READ_PASS=1 | READ_FAIL=0 | FIFO_SIZE=16
# 
# 
#  DUT : @190 | read_data =   x
# 
# 
# <------------------------------------------------------------------------------------------>
# 
#  READ_MON: 190 | RST=1 | EN=0 | READ_DATA=x | EMPTY=0
# 
# --- SCOREBOARD STATUS ---
# WRITE_PASS=17 | WRITE_FAIL=0 | READ_PASS=1 | READ_FAIL=0 | FIFO_SIZE=16
# 
# <-------------------------------------------------------------------------------------------->
# 
# WRITE_MON: 195 | RST=1 | EN=0 | DATA=104 | FULL=1
# 
# --- SCOREBOARD STATUS ---
# WRITE_PASS=17 | WRITE_FAIL=0 | READ_PASS=1 | READ_FAIL=0 | FIFO_SIZE=16
# 
# <-------------------------------------------------------------------------------------------->
# 
# WRITE_MON: 205 | RST=1 | EN=0 | DATA=102 | FULL=1
# 
# --- SCOREBOARD STATUS ---
# WRITE_PASS=17 | WRITE_FAIL=0 | READ_PASS=1 | READ_FAIL=0 | FIFO_SIZE=16
# 
# 
#  DUT : @210 | read_data =   x
# 
# 
# <------------------------------------------------------------------------------------------>
# 
#  READ_MON: 210 | RST=1 | EN=0 | READ_DATA=x | EMPTY=0
# 
# --- SCOREBOARD STATUS ---
# WRITE_PASS=17 | WRITE_FAIL=0 | READ_PASS=1 | READ_FAIL=0 | FIFO_SIZE=16
# 
# <-------------------------------------------------------------------------------------------->
# 
# WRITE_MON: 215 | RST=1 | EN=0 | DATA=246 | FULL=1
# 
# --- SCOREBOARD STATUS ---
# WRITE_PASS=17 | WRITE_FAIL=0 | READ_PASS=1 | READ_FAIL=0 | FIFO_SIZE=16
# 
# <-------------------------------------------------------------------------------------------->
# 
# WRITE_MON: 225 | RST=1 | EN=0 | DATA=95 | FULL=1
# 
# --- SCOREBOARD STATUS ---
# WRITE_PASS=17 | WRITE_FAIL=0 | READ_PASS=1 | READ_FAIL=0 | FIFO_SIZE=16
# 
# 
#  DUT : @230 | read_data =   x
# 
# 
# <------------------------------------------------------------------------------------------>
# 
#  READ_MON: 230 | RST=1 | EN=0 | READ_DATA=x | EMPTY=0
# 
# --- SCOREBOARD STATUS ---
# WRITE_PASS=17 | WRITE_FAIL=0 | READ_PASS=1 | READ_FAIL=0 | FIFO_SIZE=16
# 
# <-------------------------------------------------------------------------------------------->
# 
# WRITE_MON: 235 | RST=1 | EN=0 | DATA=60 | FULL=1
# 
# --- SCOREBOARD STATUS ---
# WRITE_PASS=17 | WRITE_FAIL=0 | READ_PASS=1 | READ_FAIL=0 | FIFO_SIZE=16
# 
# <-------------------------------------------------------------------------------------------->
# 
# WRITE_MON: 245 | RST=1 | EN=0 | DATA=192 | FULL=1
# 
# --- SCOREBOARD STATUS ---
# WRITE_PASS=17 | WRITE_FAIL=0 | READ_PASS=1 | READ_FAIL=0 | FIFO_SIZE=16
# 
# 
#  DUT : @250 | read_data =   x
# 
# 
# <------------------------------------------------------------------------------------------>
# 
#  READ_MON: 250 | RST=1 | EN=0 | READ_DATA=x | EMPTY=0
# 
# --- SCOREBOARD STATUS ---
# WRITE_PASS=17 | WRITE_FAIL=0 | READ_PASS=1 | READ_FAIL=0 | FIFO_SIZE=16
# 
# <-------------------------------------------------------------------------------------------->
# 
# WRITE_MON: 255 | RST=1 | EN=0 | DATA=71 | FULL=1
# 
# --- SCOREBOARD STATUS ---
# WRITE_PASS=17 | WRITE_FAIL=0 | READ_PASS=1 | READ_FAIL=0 | FIFO_SIZE=16
# 
# <-------------------------------------------------------------------------------------------->
# 
# WRITE_MON: 265 | RST=1 | EN=0 | DATA=71 | FULL=1
# 
# --- SCOREBOARD STATUS ---
# WRITE_PASS=17 | WRITE_FAIL=0 | READ_PASS=1 | READ_FAIL=0 | FIFO_SIZE=16
# 
# 
#  DUT : @270 | read_data =   x
# 
# 
# <------------------------------------------------------------------------------------------>
# 
#  READ_MON: 270 | RST=1 | EN=0 | READ_DATA=x | EMPTY=0
# 
# --- SCOREBOARD STATUS ---
# WRITE_PASS=17 | WRITE_FAIL=0 | READ_PASS=1 | READ_FAIL=0 | FIFO_SIZE=16
# 
# <-------------------------------------------------------------------------------------------->
# 
# WRITE_MON: 275 | RST=1 | EN=0 | DATA=48 | FULL=1
# 
# --- SCOREBOARD STATUS ---
# WRITE_PASS=17 | WRITE_FAIL=0 | READ_PASS=1 | READ_FAIL=0 | FIFO_SIZE=16
# 
# <-------------------------------------------------------------------------------------------->
# 
# WRITE_MON: 285 | RST=1 | EN=0 | DATA=83 | FULL=1
# 
# --- SCOREBOARD STATUS ---
# WRITE_PASS=17 | WRITE_FAIL=0 | READ_PASS=1 | READ_FAIL=0 | FIFO_SIZE=16
# 
# 
#  DUT : @290 | read_data =   x
# 
# 
# <------------------------------------------------------------------------------------------>
# 
#  READ_MON: 290 | RST=1 | EN=0 | READ_DATA=x | EMPTY=0
# 
# --- SCOREBOARD STATUS ---
# WRITE_PASS=17 | WRITE_FAIL=0 | READ_PASS=1 | READ_FAIL=0 | FIFO_SIZE=16
# 
# <-------------------------------------------------------------------------------------------->
# 
# WRITE_MON: 295 | RST=1 | EN=0 | DATA=81 | FULL=1
# 
# --- SCOREBOARD STATUS ---
# WRITE_PASS=17 | WRITE_FAIL=0 | READ_PASS=1 | READ_FAIL=0 | FIFO_SIZE=16
# 
# <-------------------------------------------------------------------------------------------->
# 
# WRITE_MON: 305 | RST=1 | EN=0 | DATA=168 | FULL=1
# 
# --- SCOREBOARD STATUS ---
# WRITE_PASS=17 | WRITE_FAIL=0 | READ_PASS=1 | READ_FAIL=0 | FIFO_SIZE=16
# 
# 
#  DUT : @310 | read_data =   x
# 
# 
# <------------------------------------------------------------------------------------------>
# 
#  READ_MON: 310 | RST=1 | EN=0 | READ_DATA=x | EMPTY=0
# 
# --- SCOREBOARD STATUS ---
# WRITE_PASS=17 | WRITE_FAIL=0 | READ_PASS=1 | READ_FAIL=0 | FIFO_SIZE=16
# 
# <-------------------------------------------------------------------------------------------->
# 
# WRITE_MON: 315 | RST=1 | EN=0 | DATA=0 | FULL=1
# 
# --- SCOREBOARD STATUS ---
# WRITE_PASS=17 | WRITE_FAIL=0 | READ_PASS=1 | READ_FAIL=0 | FIFO_SIZE=16
# 
# <-------------------------------------------------------------------------------------------->
# 
# WRITE_MON: 325 | RST=1 | EN=0 | DATA=125 | FULL=1
# 
# --- SCOREBOARD STATUS ---
# WRITE_PASS=17 | WRITE_FAIL=0 | READ_PASS=1 | READ_FAIL=0 | FIFO_SIZE=16
# 
# 
#  DUT : @330 | read_data =   x
# 
# 
# <------------------------------------------------------------------------------------------>
# 
#  READ_MON: 330 | RST=1 | EN=0 | READ_DATA=x | EMPTY=0
# 
# --- SCOREBOARD STATUS ---
# WRITE_PASS=17 | WRITE_FAIL=0 | READ_PASS=1 | READ_FAIL=0 | FIFO_SIZE=16
# 
# <-------------------------------------------------------------------------------------------->
# 
# WRITE_MON: 335 | RST=1 | EN=0 | DATA=254 | FULL=1
# 
# --- SCOREBOARD STATUS ---
# WRITE_PASS=17 | WRITE_FAIL=0 | READ_PASS=1 | READ_FAIL=0 | FIFO_SIZE=16
# 
# <-------------------------------------------------------------------------------------------->
# 
# WRITE_MON: 345 | RST=1 | EN=0 | DATA=254 | FULL=1
# 
# --- SCOREBOARD STATUS ---
# WRITE_PASS=17 | WRITE_FAIL=0 | READ_PASS=1 | READ_FAIL=0 | FIFO_SIZE=16
# 
# 
#  DUT : @350 | read_data =   x
# 
# 
# <------------------------------------------------------------------------------------------>
# 
#  READ_MON: 350 | RST=1 | EN=0 | READ_DATA=x | EMPTY=0
# 
# --- SCOREBOARD STATUS ---
# WRITE_PASS=17 | WRITE_FAIL=0 | READ_PASS=1 | READ_FAIL=0 | FIFO_SIZE=16
# 
# <-------------------------------------------------------------------------------------------->
# 
# WRITE_MON: 355 | RST=1 | EN=0 | DATA=254 | FULL=1
# 
# --- SCOREBOARD STATUS ---
# WRITE_PASS=17 | WRITE_FAIL=0 | READ_PASS=1 | READ_FAIL=0 | FIFO_SIZE=16
# 
# <-------------------------------------------------------------------------------------------->
# 
# WRITE_MON: 365 | RST=1 | EN=0 | DATA=254 | FULL=1
# 
# --- SCOREBOARD STATUS ---
# WRITE_PASS=17 | WRITE_FAIL=0 | READ_PASS=1 | READ_FAIL=0 | FIFO_SIZE=16
# 
# 
#  DUT : @370 | read_data =   x
# 
# 
# <------------------------------------------------------------------------------------------>
# 
#  READ_MON: 370 | RST=1 | EN=1 | READ_DATA=x | EMPTY=0
# UVM_INFO scoreboard.sv(142) @ 370: uvm_test_top.env.scb [SCOREBOARD] Skipping first read transaction to align latency
# 
# --- SCOREBOARD STATUS ---
# WRITE_PASS=17 | WRITE_FAIL=0 | READ_PASS=1 | READ_FAIL=0 | FIFO_SIZE=16
# 
# <-------------------------------------------------------------------------------------------->
# 
# WRITE_MON: 375 | RST=1 | EN=0 | DATA=254 | FULL=1
# 
# --- SCOREBOARD STATUS ---
# WRITE_PASS=17 | WRITE_FAIL=0 | READ_PASS=1 | READ_FAIL=0 | FIFO_SIZE=16
# 
# <-------------------------------------------------------------------------------------------->
# 
# WRITE_MON: 385 | RST=1 | EN=0 | DATA=254 | FULL=1
# 
# --- SCOREBOARD STATUS ---
# WRITE_PASS=17 | WRITE_FAIL=0 | READ_PASS=1 | READ_FAIL=0 | FIFO_SIZE=16
# 
# 
#  DUT : @390 | read_data = 186
# 
# 
# <------------------------------------------------------------------------------------------>
# 
#  READ_MON: 390 | RST=1 | EN=1 | READ_DATA=186 | EMPTY=0
# <============================ READ PASS ===========================>
# UVM_INFO scoreboard.sv(171) @ 390: uvm_test_top.env.scb [SCOREBOARD] READ PASS: Expected=186 | Received=186
# <----------------------------------------------------------------------------------------->
# 
# 
# --- SCOREBOARD STATUS ---
# WRITE_PASS=17 | WRITE_FAIL=0 | READ_PASS=2 | READ_FAIL=0 | FIFO_SIZE=15
# 
# <-------------------------------------------------------------------------------------------->
# 
# WRITE_MON: 395 | RST=1 | EN=0 | DATA=254 | FULL=0
# 
# --- SCOREBOARD STATUS ---
# WRITE_PASS=17 | WRITE_FAIL=0 | READ_PASS=2 | READ_FAIL=0 | FIFO_SIZE=15
# 
# <-------------------------------------------------------------------------------------------->
# 
# WRITE_MON: 405 | RST=1 | EN=0 | DATA=254 | FULL=0
# 
# --- SCOREBOARD STATUS ---
# WRITE_PASS=17 | WRITE_FAIL=0 | READ_PASS=2 | READ_FAIL=0 | FIFO_SIZE=15
# 
# 
#  DUT : @410 | read_data = 203
# 
# 
# <------------------------------------------------------------------------------------------>
# 
#  READ_MON: 410 | RST=1 | EN=1 | READ_DATA=203 | EMPTY=0
# <============================ READ PASS ===========================>
# UVM_INFO scoreboard.sv(171) @ 410: uvm_test_top.env.scb [SCOREBOARD] READ PASS: Expected=203 | Received=203
# <----------------------------------------------------------------------------------------->
# 
# 
# --- SCOREBOARD STATUS ---
# WRITE_PASS=17 | WRITE_FAIL=0 | READ_PASS=3 | READ_FAIL=0 | FIFO_SIZE=14
# 
# <-------------------------------------------------------------------------------------------->
# 
# WRITE_MON: 415 | RST=1 | EN=0 | DATA=254 | FULL=0
# 
# --- SCOREBOARD STATUS ---
# WRITE_PASS=17 | WRITE_FAIL=0 | READ_PASS=3 | READ_FAIL=0 | FIFO_SIZE=14
# 
# <-------------------------------------------------------------------------------------------->
# 
# WRITE_MON: 425 | RST=1 | EN=0 | DATA=254 | FULL=0
# 
# --- SCOREBOARD STATUS ---
# WRITE_PASS=17 | WRITE_FAIL=0 | READ_PASS=3 | READ_FAIL=0 | FIFO_SIZE=14
# 
# 
#  DUT : @430 | read_data = 195
# 
# 
# <------------------------------------------------------------------------------------------>
# 
#  READ_MON: 430 | RST=1 | EN=1 | READ_DATA=195 | EMPTY=0
# <============================ READ PASS ===========================>
# UVM_INFO scoreboard.sv(171) @ 430: uvm_test_top.env.scb [SCOREBOARD] READ PASS: Expected=195 | Received=195
# <----------------------------------------------------------------------------------------->
# 
# 
# --- SCOREBOARD STATUS ---
# WRITE_PASS=17 | WRITE_FAIL=0 | READ_PASS=4 | READ_FAIL=0 | FIFO_SIZE=13
# 
# <-------------------------------------------------------------------------------------------->
# 
# WRITE_MON: 435 | RST=1 | EN=0 | DATA=254 | FULL=0
# 
# --- SCOREBOARD STATUS ---
# WRITE_PASS=17 | WRITE_FAIL=0 | READ_PASS=4 | READ_FAIL=0 | FIFO_SIZE=13
# 
# <-------------------------------------------------------------------------------------------->
# 
# WRITE_MON: 445 | RST=1 | EN=0 | DATA=254 | FULL=0
# 
# --- SCOREBOARD STATUS ---
# WRITE_PASS=17 | WRITE_FAIL=0 | READ_PASS=4 | READ_FAIL=0 | FIFO_SIZE=13
# 
# 
#  DUT : @450 | read_data =  70
# 
# 
# <------------------------------------------------------------------------------------------>
# 
#  READ_MON: 450 | RST=1 | EN=1 | READ_DATA=70 | EMPTY=0
# <============================ READ PASS ===========================>
# UVM_INFO scoreboard.sv(171) @ 450: uvm_test_top.env.scb [SCOREBOARD] READ PASS: Expected=70 | Received=70
# <----------------------------------------------------------------------------------------->
# 
# 
# --- SCOREBOARD STATUS ---
# WRITE_PASS=17 | WRITE_FAIL=0 | READ_PASS=5 | READ_FAIL=0 | FIFO_SIZE=12
# 
# <-------------------------------------------------------------------------------------------->
# 
# WRITE_MON: 455 | RST=1 | EN=0 | DATA=254 | FULL=0
# 
# --- SCOREBOARD STATUS ---
# WRITE_PASS=17 | WRITE_FAIL=0 | READ_PASS=5 | READ_FAIL=0 | FIFO_SIZE=12
# 
# <-------------------------------------------------------------------------------------------->
# 
# WRITE_MON: 465 | RST=1 | EN=0 | DATA=254 | FULL=0
# 
# --- SCOREBOARD STATUS ---
# WRITE_PASS=17 | WRITE_FAIL=0 | READ_PASS=5 | READ_FAIL=0 | FIFO_SIZE=12
# 
# 
#  DUT : @470 | read_data =  15
# 
# 
# <------------------------------------------------------------------------------------------>
# 
#  READ_MON: 470 | RST=1 | EN=1 | READ_DATA=15 | EMPTY=0
# <============================ READ PASS ===========================>
# UVM_INFO scoreboard.sv(171) @ 470: uvm_test_top.env.scb [SCOREBOARD] READ PASS: Expected=15 | Received=15
# <----------------------------------------------------------------------------------------->
# 
# 
# --- SCOREBOARD STATUS ---
# WRITE_PASS=17 | WRITE_FAIL=0 | READ_PASS=6 | READ_FAIL=0 | FIFO_SIZE=11
# 
# <-------------------------------------------------------------------------------------------->
# 
# WRITE_MON: 475 | RST=1 | EN=0 | DATA=254 | FULL=0
# 
# --- SCOREBOARD STATUS ---
# WRITE_PASS=17 | WRITE_FAIL=0 | READ_PASS=6 | READ_FAIL=0 | FIFO_SIZE=11
# 
# <-------------------------------------------------------------------------------------------->
# 
# WRITE_MON: 485 | RST=1 | EN=0 | DATA=254 | FULL=0
# 
# --- SCOREBOARD STATUS ---
# WRITE_PASS=17 | WRITE_FAIL=0 | READ_PASS=6 | READ_FAIL=0 | FIFO_SIZE=11
# 
# 
#  DUT : @490 | read_data = 147
# 
# 
# <------------------------------------------------------------------------------------------>
# 
#  READ_MON: 490 | RST=1 | EN=1 | READ_DATA=147 | EMPTY=0
# <============================ READ PASS ===========================>
# UVM_INFO scoreboard.sv(171) @ 490: uvm_test_top.env.scb [SCOREBOARD] READ PASS: Expected=147 | Received=147
# <----------------------------------------------------------------------------------------->
# 
# 
# --- SCOREBOARD STATUS ---
# WRITE_PASS=17 | WRITE_FAIL=0 | READ_PASS=7 | READ_FAIL=0 | FIFO_SIZE=10
# 
# <-------------------------------------------------------------------------------------------->
# 
# WRITE_MON: 495 | RST=1 | EN=0 | DATA=254 | FULL=0
# 
# --- SCOREBOARD STATUS ---
# WRITE_PASS=17 | WRITE_FAIL=0 | READ_PASS=7 | READ_FAIL=0 | FIFO_SIZE=10
# 
# <-------------------------------------------------------------------------------------------->
# 
# WRITE_MON: 505 | RST=1 | EN=0 | DATA=254 | FULL=0
# 
# --- SCOREBOARD STATUS ---
