src/wave.vcd
$date
	Sun Oct 12 21:20:02 2025
$end
$version
	QuestaSim Version 10.6c
$end
$timescale
	1ns
$end

$scope module uvm_root $end
$upscope $end

$scope module top $end

$scope module dut $end

$scope module fifomem $end
$upscope $end
$upscope $end
$upscope $end

$scope begin uvm_pkg $end
$var parameter 32 ! UVM_HDL_MAX_WIDTH $end
$var parameter 32 " UVM_STREAMBITS $end
$var parameter 32 # UVM_RADIX $end
$var parameter 32 $ UVM_MACRO_NUMFLAGS $end
$var parameter 32 % UVM_DEFAULT $end
$var parameter 32 & UVM_ALL_ON $end
$var parameter 32 ' UVM_FLAGS_ON $end
$var parameter 32 ( UVM_FLAGS_OFF $end
$var parameter 32 ) UVM_COPY $end
$var parameter 32 * UVM_NOCOPY $end
$var parameter 32 + UVM_COMPARE $end
$var parameter 32 , UVM_NOCOMPARE $end
$var parameter 32 - UVM_PRINT $end
$var parameter 32 . UVM_NOPRINT $end
$var parameter 32 / UVM_RECORD $end
$var parameter 32 0 UVM_NORECORD $end
$var parameter 32 1 UVM_PACK $end
$var parameter 32 2 UVM_NOPACK $end
$var parameter 32 3 UVM_PHYSICAL $end
$var parameter 32 4 UVM_ABSTRACT $end
$var parameter 32 5 UVM_READONLY $end
$var parameter 32 6 UVM_NODEFPRINT $end
$var parameter 32 7 UVM_MACRO_EXTRAS $end
$var parameter 32 8 UVM_FLAGS $end
$var parameter 32 9 UVM_UNPACK $end
$var parameter 32 : UVM_CHECK_FIELDS $end
$var parameter 32 ; UVM_END_DATA_EXTRA $end
$var parameter 32 < UVM_START_FUNCS $end
$var parameter 32 = UVM_SET $end
$var parameter 32 > UVM_SETINT $end
$var parameter 32 ? UVM_SETOBJ $end
$var parameter 32 @ UVM_SETSTR $end
$var parameter 32 A UVM_END_FUNCS $end
$var parameter 32 B UVM_STR_CRC_POLYNOMIAL $end
$var parameter 32 C UVM_STDOUT $end
$var parameter 32 D UVM_LINE_WIDTH $end
$var parameter 32 E UVM_NUM_LINES $end
$var parameter 32 F UVM_SMALL_STRING $end
$var parameter 32 G UVM_LARGE_STRING $end
$var reg 1 H uvm_start_uvm_declarations $end
$var integer 32 I uvm_global_random_seed $end
$var integer 32 J UVM_UNBOUNDED_CONNECTIONS $end

$scope function uvm_hdl_check_path $end
$var integer 32 K uvm_hdl_check_path $end
$upscope $end

$scope function uvm_hdl_deposit $end
$var integer 32 L uvm_hdl_deposit $end
$var reg 1024 M value [1023:0] $end
$upscope $end

$scope function uvm_hdl_force $end
$var integer 32 N uvm_hdl_force $end
$var reg 1024 O value [1023:0] $end
$upscope $end

$scope task uvm_hdl_force_time $end
$var reg 1024 P value [1023:0] $end
$var time 64 Q force_time $end
$upscope $end

$scope function uvm_hdl_release_and_read $end
$var integer 32 R uvm_hdl_release_and_read $end
$var reg 1024 S value [1023:0] $end
$upscope $end

$scope function uvm_hdl_release $end
$var integer 32 T uvm_hdl_release $end
$upscope $end

$scope function uvm_hdl_read $end
$var integer 32 U uvm_hdl_read $end
$var reg 1024 V value [1023:0] $end
$upscope $end

$scope function uvm_dpi_get_next_arg_c $end
$upscope $end

$scope function uvm_dpi_get_tool_name_c $end
$upscope $end

$scope function uvm_dpi_get_tool_version_c $end
$upscope $end

$scope function uvm_dpi_get_next_arg $end
$upscope $end

$scope function uvm_dpi_get_tool_name $end
$upscope $end

$scope function uvm_dpi_get_tool_version $end
$upscope $end

$scope function uvm_dpi_regcomp $end
$upscope $end

$scope function uvm_dpi_regexec $end
$var integer 32 W uvm_dpi_regexec $end
$upscope $end

$scope function uvm_dpi_regfree $end
$upscope $end

$scope function uvm_re_match $end
$var integer 32 X uvm_re_match $end
$upscope $end

$scope function uvm_dump_re_cache $end
$upscope $end

$scope function uvm_glob_to_re $end
$upscope $end

$scope function uvm_revision_string $end
$upscope $end

$scope function uvm_radix_to_string $end
$var integer 32 Y radix $end
$upscope $end

$scope function uvm_instance_scope $end
$var reg 8 Z c [7:0] $end
$var integer 32 [ pos $end
$upscope $end

$scope function uvm_oneway_hash $end
$var integer 32 \ uvm_oneway_hash $end
$var integer 32 ] seed $end
$var reg 1 ^ msb $end
$var reg 8 _ current_byte [7:0] $end
$var reg 32 ` crc1 [31:0] $end
$upscope $end

$scope function uvm_create_random_seed $end
$var integer 32 a uvm_create_random_seed $end
$upscope $end

$scope function uvm_object_value_str $end
$upscope $end

$scope function uvm_leaf_scope $end
$var reg 8 b scope_separator [7:0] $end
$var reg 8 c bracket_match [7:0] $end
$var integer 32 d pos $end
$var integer 32 e bmatches $end
$upscope $end

$scope function uvm_vector_to_string $end
$var reg 4096 f value [4095:0] $end
$var integer 32 g size $end
$var integer 32 h radix $end
$upscope $end

$scope function uvm_get_array_index_int $end
$var integer 32 i uvm_get_array_index_int $end
$var reg 1 j is_wildcard $end
$var integer 32 k i $end
$upscope $end

$scope function uvm_get_array_index_string $end
$var reg 1 l is_wildcard $end
$var integer 32 m i $end
$upscope $end

$scope function uvm_is_array $end
$var reg 1 n uvm_is_array $end
$upscope $end

$scope function uvm_has_wildcard $end
$upscope $end

$scope task run_test $end
$upscope $end

$scope function global_stop_request $end
$upscope $end

$scope function set_global_timeout $end
$var time 64 o timeout $end
$var reg 1 p overridable $end
$upscope $end

$scope function set_global_stop_timeout $end
$var time 64 q timeout $end
$upscope $end

$scope function uvm_report_enabled $end
$var reg 1 r uvm_report_enabled $end
$var integer 32 s verbosity $end
$var reg 2 t severity [1:0] $end
$upscope $end

$scope function uvm_report $end
$var reg 2 u severity [1:0] $end
$var integer 32 v verbosity $end
$var integer 32 w line $end
$upscope $end

$scope function uvm_report_info $end
$var integer 32 x verbosity $end
$var integer 32 y line $end
$upscope $end

$scope function uvm_report_warning $end
$var integer 32 z verbosity $end
$var integer 32 { line $end
$upscope $end

$scope function uvm_report_error $end
$var integer 32 | verbosity $end
$var integer 32 } line $end
$upscope $end

$scope function uvm_report_fatal $end
$var integer 32 ~ verbosity $end
$var integer 32 !! line $end
$upscope $end

$scope function uvm_string_to_severity $end
$var reg 1 "! uvm_string_to_severity $end
$var reg 2 #! sev [1:0] $end
$upscope $end

$scope function uvm_string_to_action $end
$upscope $end

$scope function set_config_int $end
$var reg 4096 $! value [4095:0] $end
$upscope $end

$scope function set_config_object $end
$var reg 1 %! clone $end
$upscope $end

$scope function set_config_string $end
$upscope $end

$scope function uvm_is_match $end
$var reg 1 &! uvm_is_match $end
$upscope $end

$scope function uvm_string_to_bits $end
$var reg 115200 '! uvm_string_to_bits [115199:0] $end
$upscope $end

$scope function uvm_bits_to_string $end
$var reg 115200 (! str [115199:0] $end
$upscope $end

$scope task uvm_wait_for_nba_region $end
$var integer 32 )! nba $end
$var integer 32 *! next_nba $end
$upscope $end

$scope function uvm_split_string $end
$upscope $end

$scope function uvm_hdl_concat2string $end
$upscope $end
$upscope $end

$scope begin async_fifo_pkg $end
$var parameter 32 +! ADDR_WIDTH $end
$upscope $end

$scope begin async_fifo_top_sv_unit $end
$var parameter 32 ,! ADDR_WIDTH $end
$upscope $end

$scope begin std $end
$upscope $end

$scope begin questa_uvm_pkg $end
$upscope $end
$enddefinitions $end
#0
$dumpvars
0l
0n
0"!
b0 #!
bx '!
bx (!
bx M
bx O
bx P
bx S
bx V
1H
0^
b1110001 _
b11111110010010000000011101111000 `
b1 f
0j
0p
0r
b0 t
b0 u
bx $!
0%!
0&!
b100 ,!
b10000000000 !
b1000000000000 "
b1111000000000000000000000000 #
b10001 $
b10101010101 %
b101010101 &
b101010101 '
b0 (
b1 )
b10 *
b100 +
b1000 ,
b10000 -
b100000 .
b1000000 /
b10000000 0
b100000000 1
b1000000000 2
b10000000000000 3
b100000000000000 4
b1000000000000000 5
b10000000000000000 6
b100000000000000000 7
b100000000000000001 8
b100000000000000010 9
b100000000000000011 :
b100000000000000100 ;
b100000000000000101 <
b100000000000000110 =
b100000000000000110 >
b100000000000000111 ?
b100000000000001000 @
b100000000000001000 A
b100110000010001110110110110 B
b1 C
b1111000 D
b1111000 E
b1110111111 F
b11100000111111111 G
b100 +!
b0 Y
b101110 b
b0 c
b100010 d
b11111111111111111111111111111111 e
b0 m
b0 K
b0 L
b0 N
b0 R
b0 T
b0 U
b1 W
b0 X
b1101001011000001111100000011110 I
b101110 Z
b111 [
b11110001010110011010111100011111 \
b1101001011000001111100000011110 ]
b11110111101011011011100001000011 a
b100000 g
b10000000000000000000000000 h
b0 i
b0 k
b111110100 s
b0 v
b0 w
b11001000 x
b11011001 y
b0 z
b0 {
b0 |
b0 }
b0 ~
b0 !!
b100011 )!
b100011 *!
b11111111111111111111111111111111 J
bx Q
bx o
bx q
$end
#5
b100100 *!
b100100 )!
#10
b100101 *!
b100101 )!
#15
b100110 *!
b10001001011100000011110010001100 a
b10001001011100000011110010001111 a
b100110 )!
#25
b100111 *!
b10001001011100000011110010010011 a
b10001001011100000011110010011000 a
b100111 )!
#30
b101000 *!
b11110001010110011010111100100010 a
b11110001010110011010111100100101 a
b101000 )!
#35
b101001 *!
b10001001011100000011110010011110 a
b10001001011100000011110010100101 a
b101001 )!
#45
b101010 *!
b10001001011100000011110010101101 a
b10001001011100000011110010110110 a
b101010 )!
#50
b101011 *!
b11110001010110011010111100101001 a
b11110001010110011010111100101110 a
b101011 )!
#55
b101100 *!
b10001001011100000011110011000000 a
b10001001011100000011110011001011 a
b101100 )!
#65
b101101 *!
b10001001011100000011110011010111 a
b10001001011100000011110011100100 a
b101101 )!
#70
b101110 *!
b11110001010110011010111100110100 a
b11110001010110011010111100111011 a
b101110 )!
#75
b101111 *!
b10001001011100000011110011110010 a
b10001001011100000011110100000001 a
b101111 )!
#85
b110000 *!
b10001001011100000011110100010001 a
b10001001011100000011110100100010 a
b110000 )!
#90
b110001 *!
b11110001010110011010111101000011 a
b11110001010110011010111101001100 a
b110001 )!
#95
b110010 *!
b10001001011100000011110100110100 a
b10001001011100000011110101000111 a
b110010 )!
#105
b110011 *!
b10001001011100000011110101011011 a
b10001001011100000011110101110000 a
b110011 )!
#110
b110100 *!
b11110001010110011010111101010110 a
b11110001010110011010111101100001 a
b110100 )!
#115
b110101 *!
b10001001011100000011110110000110 a
b10001001011100000011110110011101 a
b110101 )!
#125
b110110 *!
b10001001011100000011110110110101 a
b10001001011100000011110111001110 a
b110110 )!
#130
b110111 *!
b11110001010110011010111101101101 a
b11110001010110011010111101111010 a
b110111 )!
#135
b111000 *!
b10001001011100000011110111101000 a
b10001001011100000011111000000011 a
b111000 )!
#145
b111001 *!
b10001001011100000011111000011111 a
b10001001011100000011111000111100 a
b111001 )!
#150
b111010 *!
b11110001010110011010111110001000 a
b11110001010110011010111110010111 a
b111010 )!
#155
b111011 *!
b10001001011100000011111001011010 a
b10001001011100000011111001111001 a
b111011 )!
#165
b111100 *!
b10001001011100000011111010011001 a
b10001001011100000011111010111010 a
b111100 )!
#170
b111101 *!
b11110001010110011010111110100111 a
b11110001010110011010111110111000 a
b111101 )!
#175
b111110 *!
b10001001011100000011111011011100 a
b10001001011100000011111011111111 a
b111110 )!
#185
b111111 *!
b10001001011100000011111100100011 a
b10001001011100000011111101001000 a
b111111 )!
#190
b1000000 *!
b11110001010110011010111111001010 a
b11110001010110011010111111011101 a
b1000000 )!
#195
b1000001 *!
b10001001011100000011111101101110 a
b10001001011100000011111110010101 a
b1000001 )!
#205
b1000010 *!
b10001001011100000011111110111101 a
b10001001011100000011111111100110 a
b1000010 )!
#210
b1000011 *!
b11110001010110011010111111110001 a
b11110001010110011011000000000110 a
b1000011 )!
#215
b1000100 *!
b10001001011100000100000000010000 a
b10001001011100000100000000111011 a
b1000100 )!
#225
b1000101 *!
b10001001011100000100000001100111 a
b10001001011100000100000010010100 a
b1000101 )!
#230
b1000110 *!
b11110001010110011011000000011100 a
b11110001010110011011000000110011 a
b1000110 )!
#235
b1000111 *!
b10001001011100000100000011000010 a
b10001001011100000100000011110001 a
b1000111 )!
#245
b1001000 *!
b10001001011100000100000100100001 a
b10001001011100000100000101010010 a
b1001000 )!
#250
b1001001 *!
b11110001010110011011000001001011 a
b11110001010110011011000001100100 a
b1001001 )!
#255
b1001010 *!
b10001001011100000100000110000100 a
b10001001011100000100000110110111 a
b1001010 )!
#265
b1001011 *!
b10001001011100000100000111101011 a
b10001001011100000100001000100000 a
b1001011 )!
#270
b1001100 *!
b11110001010110011011000001111110 a
b11110001010110011011000010011001 a
b1001100 )!
#275
b1001101 *!
b10001001011100000100001001010110 a
b10001001011100000100001010001101 a
b1001101 )!
#285
b1001110 *!
b10001001011100000100001011000101 a
b10001001011100000100001011111110 a
b1001110 )!
#290
b1001111 *!
b11110001010110011011000010110101 a
b11110001010110011011000011010010 a
b1001111 )!
#295
b1010000 *!
b10001001011100000100001100111000 a
b10001001011100000100001101110011 a
b1010000 )!
#305
b1010001 *!
b10001001011100000100001110101111 a
b10001001011100000100001111101100 a
b1010001 )!
#310
b1010010 *!
b11110001010110011011000011110000 a
b11110001010110011011000100001111 a
b1010010 )!
#315
b1010011 *!
b10001001011100000100010000101010 a
b10001001011100000100010001101001 a
b1010011 )!
#325
b1010100 *!
b10001001011100000100010010101001 a
b10001001011100000100010011101010 a
b1010100 )!
#330
b1010101 *!
b11110001010110011011000100101111 a
b11110001010110011011000101010000 a
b1010101 )!
#335
b1010110 *!
b10001001011100000100010100101100 a
b10001001011100000100010101101111 a
b1010110 )!
#345
b1010111 *!
b10001001011100000100010110110011 a
b10001001011100000100010111111000 a
b1010111 )!
#350
b1011000 *!
b11110001010110011011000101110010 a
b11110001010110011011000110010101 a
b1011000 )!
#355
b1011001 *!
b10001001011100000100011000111110 a
b10001001011100000100011010000101 a
b1011001 )!
#365
b1011010 *!
b10001001011100000100011011001101 a
b10001001011100000100011100010110 a
b1011010 )!
#370
b1011011 *!
b11110001010110011011000110111001 a
b11110001010110011011000111011110 a
b1011011 )!
#375
b1011100 *!
b10001001011100000100011101100000 a
b10001001011100000100011110101011 a
b1011100 )!
#385
b1011101 *!
b10001001011100000100011111110111 a
b10001001011100000100100001000100 a
b1011101 )!
#390
b1011110 *!
b11110001010110011011001000000100 a
b11110001010110011011001000101011 a
b1011110 )!
#395
b1011111 *!
b10001001011100000100100010010010 a
b10001001011100000100100011100001 a
b1011111 )!
#405
b1100000 *!
b10001001011100000100100100110001 a
b10001001011100000100100110000010 a
b1100000 )!
#410
b1100001 *!
b11110001010110011011001001010011 a
b11110001010110011011001001111100 a
b1100001 )!
#415
b1100010 *!
b10001001011100000100100111010100 a
b10001001011100000100101000100111 a
b1100010 )!
#425
b1100011 *!
b10001001011100000100101001111011 a
b10001001011100000100101011010000 a
b1100011 )!
#430
b1100100 *!
b11110001010110011011001010100110 a
b11110001010110011011001011010001 a
b1100100 )!
#435
b1100101 *!
b10001001011100000100101100100110 a
b10001001011100000100101101111101 a
b1100101 )!
#445
b1100110 *!
b10001001011100000100101111010101 a
b10001001011100000100110000101110 a
b1100110 )!
#450
b1100111 *!
b11110001010110011011001011111101 a
b11110001010110011011001100101010 a
b1100111 )!
#455
b1101000 *!
b10001001011100000100110010001000 a
b10001001011100000100110011100011 a
b1101000 )!
#465
b1101001 *!
b10001001011100000100110100111111 a
b10001001011100000100110110011100 a
b1101001 )!
#470
b1101010 *!
b11110001010110011011001101011000 a
b11110001010110011011001110000111 a
b1101010 )!
#475
b1101011 *!
b10001001011100000100110111111010 a
b10001001011100000100111001011001 a
b1101011 )!
#485
b1101100 *!
b10001001011100000100111010111001 a
b10001001011100000100111100011010 a
b1101100 )!
#490
b1101101 *!
b11110001010110011011001110110111 a
b11110001010110011011001111101000 a
b1101101 )!
#495
b1101110 *!
b1101110 )!
#510
b1101111 *!
b11110001010110011011010000011010 a
b11110001010110011011010001001101 a
b1101111 )!
#530
b1110000 *!
b11110001010110011011010010000001 a
b11110001010110011011010010110110 a
b1110000 )!
#550
b1110001 *!
b11110001010110011011010011101100 a
b11110001010110011011010100100011 a
b1110001 )!
#570
b1110010 *!
b11110001010110011011010101011011 a
b11110001010110011011010110010100 a
b1110010 )!
#590
b1110011 *!
b11110001010110011011010111001110 a
b11110001010110011011011000001001 a
b1110011 )!
#610
b1110100 *!
b11110001010110011011011001000101 a
b11110001010110011011011010000010 a
b1110100 )!
#630
b1110101 *!
b11110001010110011011011011000000 a
b11110001010110011011011011111111 a
b1110101 )!
#650
b1110110 *!
b11110001010110011011011100111111 a
b11110001010110011011011110000000 a
b1110110 )!
#670
b1110111 *!
b11110001010110011011011111000010 a
b11110001010110011011100000000101 a
b1110111 )!
#690
b1111000 *!
b11110001010110011011100001001001 a
b11110001010110011011100010001110 a
b1111000 )!
#710
b1111001 *!
b11110001010110011011100011010100 a
b11110001010110011011100100011011 a
b1111001 )!
#730
b1111010 *!
b11110001010110011011100101100011 a
b11110001010110011011100110101100 a
b1111010 )!
#750
b1111011 *!
b11110001010110011011100111110110 a
b11110001010110011011101001000001 a
b1111011 )!
#770
b1111100 *!
b11110001010110011011101010001101 a
b11110001010110011011101011011010 a
b1111100 )!
#790
b1111101 *!
b11110001010110011011101100101000 a
b11110001010110011011101101110111 a
b1111101 )!
#810
b1111110 *!
b11110001010110011011101111000111 a
b11110001010110011011110000011000 a
b1111110 )!
#830
b1111111 *!
b11110001010110011011110001101010 a
b11110001010110011011110010111101 a
b1111111 )!
#850
b10000000 *!
b11110001010110011011110100010001 a
b11110001010110011011110101100110 a
b10000000 )!
#870
b10000001 *!
b11110001010110011011110110111100 a
b11110001010110011011111000010011 a
b10000001 )!
#890
b10000010 *!
b11110001010110011011111001101011 a
b11110001010110011011111011000100 a
b10000010 )!
#910
b10000011 *!
b11110001010110011011111100011110 a
b11110001010110011011111101111001 a
b10000011 )!
#930
b10000100 *!
b11110001010110011011111111010101 a
b11110001010110011100000000110010 a
b10000100 )!
#950
b10000101 *!
b11110001010110011100000010010000 a
b11110001010110011100000011101111 a
b10000101 )!
#970
b10000110 *!
b11110001010110011100000101001111 a
b11110001010110011100000110110000 a
b10000110 )!
#990
b10000111 *!
b10001000 *!
b10001001 *!
b10000111 )!
b10001000 )!
b10001001 )!
b10001010 *!
b10001011 *!
b10001010 )!
b10001011 )!
b11110111101011011011100001010101 a
b1100111000110011010111110111100 a
b111010011101111101000001111011 a
b111111100011011101010101110010 a
b1010110011010001010000100100101 a
b10011011001101100111110101000111 a
b10010101001011010101010101000100 a
b10111000011110100001101011000100 a
b11000010011010111011010000011110 a
b1001100110111110010110001111101 a
b10001001110010110000001101000001 a
b100011100111111000000010100011 a
b110101010011010100000001110010 a
b1110011110011010101010000011111 a
b10100000001000000101000010110001 a
b11011110000000011111011110011100 a
b1010110011011011101000010101000 a
b10000000000000010000100001 a
b11000100111111101010111101000100 a
b11010110100001010100000111001101 a
b1111111110010100111010010001 a
b10010011010110001101001101110001 a
b10101111010011111001000011110111 a
b1011101011110100011110011110101 a
b10100001111011111111100011100101 a
b11100111010110000010111010001110 a
b10011011001111100001010111111000 a
b1110111111110111011101010100001 a
b10111000011100101011000101110011 a
b1101110100011100101000110100100 a
b11101100000001011101111000100010 a
b10111101011100110001100100000 a
b100011100101110001011101010100 a
b1111101011011110011111111100011 a
b10011001000101010000010000001 a
b1010010101111100101000000100100 a
b1000000011011011111101100000110 a
b10100010001010111011011001010110 a
b10111110000111001010100000100011 a
b110000101010111000100001100001 a
b10101000101001001100111001011100 a
b10110001110011001100011010101000 a
b101111101001111000001110001101 a
b1110010010101101000000010011111 a
b1001110100100000101110000111 a
b11010011101101111111101001010010 a
b11001001101000100100010000010111 a
b1111101111111001001110011010101 a
b101011101010100111100010000001 a
b10111011110100100101001001110100 a
b11000100001111010011101100100010 a
b1001011000111001111101011110110 a
b11110100111010000111011001111110 a
b1111111111111000010000111100 a
b11100000001101010110011010111101 a
b1000001101100110010011110111111 a
b10000011110111011011000101001110 a
b1110001101110001111101101110100 a
b10110110001011101110001111010110 a
b11111001111100110111111101010110 a
b10100010000010011100111101111010 a
b111000011000110011100110101111 a
b11011100000111001000010000111110 a
b11110111101011011011100001101000 a
b1100111000110011010111111001111 a
b111010011101111101000010001110 a
b111111100011011101010110000101 a
b1010110011010001010000100111000 a
b10011011001101100111110101011010 a
b10010101001011010101010101010111 a
b10111000011110100001101011010111 a
b11000010011010111011010000110001 a
b1001100110111110010110010010000 a
b10001001110010110000001101010100 a
b100011100111111000000010110110 a
b110101010011010100000010000101 a
b1110011110011010101010000110010 a
b10100000001000000101000011000100 a
b11011110000000011111011110101111 a
b1010110011011011101000010111011 a
b10000000000000010000110100 a
b11000100111111101010111101010111 a
b11010110100001010100000111100000 a
b1111111110010100111010100100 a
b10010011010110001101001110000100 a
b10101111010011111001000100001010 a
b1011101011110100011110100001000 a
b10100001111011111111100011111000 a
b11100111010110000010111010100001 a
b10011011001111100001011000001011 a
b1110111111110111011101010110100 a
b10111000011100101011000110000110 a
b1101110100011100101000110110111 a
b11101100000001011101111000110101 a
b10111101011100110001100110011 a
b100011100101110001011101100111 a
b1111101011011110011111111110110 a
b10011001000101010000010010100 a
b1010010101111100101000000110111 a
b1000000011011011111101100011001 a
b10100010001010111011011001101001 a
b10111110000111001010100000110110 a
b110000101010111000100001110100 a
b10101000101001001100111001101111 a
b10110001110011001100011010111011 a
b101111101001111000001110100000 a
b1110010010101101000000010110010 a
b1001110100100000101110011010 a
b11010011101101111111101001100101 a
b11001001101000100100010000101010 a
b1111101111111001001110011101000 a
b101011101010100111100010010100 a
b10111011110100100101001010000111 a
b11000100001111010011101100110101 a
b1001011000111001111101100001001 a
b11110100111010000111011010010001 a
b1111111111111000010001001111 a
b11100000001101010110011011010000 a
b1000001101100110010011111010010 a
b10000011110111011011000101100001 a
b1110001101110001111101110000111 a
b10110110001011101110001111101001 a
b11111001111100110111111101101001 a
b10100010000010011100111110001101 a
b111000011000110011100111000010 a
b11011100000111001000010001010001 a
b11110111101011011011100001111100 a
b1100111000110011010111111100011 a
b111010011101111101000010100010 a
b111111100011011101010110011001 a
b1010110011010001010000101001100 a
b10011011001101100111110101101110 a
b10010101001011010101010101101011 a
b10111000011110100001101011101011 a
b11000010011010111011010001000101 a
b1001100110111110010110010100100 a
b10001001110010110000001101101000 a
b100011100111111000000011001010 a
b110101010011010100000010011001 a
b1110011110011010101010001000110 a
b10100000001000000101000011011000 a
b11011110000000011111011111000011 a
b1010110011011011101000011001111 a
b10000000000000010001001000 a
b11000100111111101010111101101011 a
b11010110100001010100000111110100 a
b1111111110010100111010111000 a
b10010011010110001101001110011000 a
b10101111010011111001000100011110 a
b1011101011110100011110100011100 a
b10100001111011111111100100001100 a
b11100111010110000010111010110101 a
b10011011001111100001011000011111 a
b1110111111110111011101011001000 a
b10111000011100101011000110011010 a
b1101110100011100101000111001011 a
b11101100000001011101111001001001 a
b10111101011100110001101000111 a
b100011100101110001011101111011 a
b1111101011011110100000000001010 a
b10011001000101010000010101000 a
b1010010101111100101000001001011 a
b1000000011011011111101100101101 a
b10100010001010111011011001111101 a
b10111110000111001010100001001010 a
b110000101010111000100010001000 a
b10101000101001001100111010000011 a
b10110001110011001100011011001111 a
b101111101001111000001110110100 a
b1110010010101101000000011000110 a
b1001110100100000101110101110 a
b11010011101101111111101001111001 a
b11001001101000100100010000111110 a
b1111101111111001001110011111100 a
b101011101010100111100010101000 a
b10111011110100100101001010011011 a
b11000100001111010011101101001001 a
b1001011000111001111101100011101 a
b11110100111010000111011010100101 a
b1111111111111000010001100011 a
b11100000001101010110011011100100 a
b1000001101100110010011111100110 a
b10000011110111011011000101110101 a
b1110001101110001111101110011011 a
b10110110001011101110001111111101 a
b11111001111100110111111101111101 a
b10100010000010011100111110100001 a
b111000011000110011100111010110 a
b11011100000111001000010001100101 a
b11011100000111001000010001111010 a
b111000011000110011100111101011 a
b10100010000010011100111110110110 a
b11010110100001010100001000001001 a
b111010011101111101000010110111 a
b11110111101011011011100010010001 a
b1100111000110011010111111111000 a
b1010110011010001010000101100001 a
b111111100011011101010110101110 a
b11000100111111101010111110000000 a
b1001100110111110010110010111001 a
b10011011001101100111110110000011 a
b10010101001011010101010110000000 a
b10111000011110100001101100000000 a
b11000010011010111011010001011010 a
b10001001110010110000001101111101 a
b100011100111111000000011011111 a
b10000000000000010001011101 a
b110101010011010100000010101110 a
b1110011110011010101010001011011 a
b10100000001000000101000011101101 a
b11011110000000011111011111011000 a
b1010110011011011101000011100100 a
b10101111010011111001000100110011 a
b1111111110010100111011001101 a
b10010011010110001101001110101101 a
b11100111010110000010111011001010 a
b1011101011110100011110100110001 a
b10100001111011111111100100100001 a
b110000101010111000100010011101 a
b11101100000001011101111001011110 a
b10011011001111100001011000110100 a
b1110111111110111011101011011101 a
b10111000011100101011000110101111 a
b1101110100011100101000111100000 a
b10111101011100110001101011100 a
b100011100101110001011110010000 a
b10111110000111001010100001011111 a
b1111101011011110100000000011111 a
b10011001000101010000010111101 a
b1010010101111100101000001100000 a
b1000000011011011111101101000010 a
b10100010001010111011011010010010 a
b11111001111100110111111110010010 a
b101111101001111000001111001001 a
b10101000101001001100111010011000 a
b10110001110011001100011011100100 a
b1001110100100000101111000011 a
b1110010010101101000000011011011 a
b10110110001011101110010000010010 a
b10111011110100100101001010110000 a
b11010011101101111111101010001110 a
b11001001101000100100010001010011 a
b1111101111111001001110100010001 a
b101011101010100111100010111101 a
b11000100001111010011101101011110 a
b1001011000111001111101100110010 a
b1110001101110001111101110110000 a
b11110100111010000111011010111010 a
b1111111111111000010001111000 a
b11100000001101010110011011111001 a
b1000001101100110010011111111011 a
b10000011110111011011000110001010 a
