src/wave.vcd
$date
	Thu Oct  2 19:57:00 2025
$end
$version
	QuestaSim Version 10.6c
$end
$timescale
	1ns
$end

$scope module uvm_root $end
$upscope $end

$scope module top $end
$var reg 1 ! write_clk $end
$var reg 1 " read_clk $end

$scope module dut $end
$var parameter 32 # DSIZE $end
$var parameter 32 $ ASIZE $end
$var wire 1 % rdata [7] $end
$var wire 1 & rdata [6] $end
$var wire 1 ' rdata [5] $end
$var wire 1 ( rdata [4] $end
$var wire 1 ) rdata [3] $end
$var wire 1 * rdata [2] $end
$var wire 1 + rdata [1] $end
$var wire 1 , rdata [0] $end
$var wire 1 - wfull $end
$var wire 1 . rempty $end
$var wire 1 / wdata [7] $end
$var wire 1 0 wdata [6] $end
$var wire 1 1 wdata [5] $end
$var wire 1 2 wdata [4] $end
$var wire 1 3 wdata [3] $end
$var wire 1 4 wdata [2] $end
$var wire 1 5 wdata [1] $end
$var wire 1 6 wdata [0] $end
$var wire 1 7 winc $end
$var wire 1 8 wclk $end
$var wire 1 9 wrst_n $end
$var wire 1 : rinc $end
$var wire 1 ; rclk $end
$var wire 1 < rrst_n $end
$var wire 1 = waddr [3] $end
$var wire 1 > waddr [2] $end
$var wire 1 ? waddr [1] $end
$var wire 1 @ waddr [0] $end
$var wire 1 A raddr [3] $end
$var wire 1 B raddr [2] $end
$var wire 1 C raddr [1] $end
$var wire 1 D raddr [0] $end
$var wire 1 E wptr [4] $end
$var wire 1 F wptr [3] $end
$var wire 1 G wptr [2] $end
$var wire 1 H wptr [1] $end
$var wire 1 I wptr [0] $end
$var wire 1 J rptr [4] $end
$var wire 1 K rptr [3] $end
$var wire 1 L rptr [2] $end
$var wire 1 M rptr [1] $end
$var wire 1 N rptr [0] $end
$var wire 1 O wq2_rptr [4] $end
$var wire 1 P wq2_rptr [3] $end
$var wire 1 Q wq2_rptr [2] $end
$var wire 1 R wq2_rptr [1] $end
$var wire 1 S wq2_rptr [0] $end
$var wire 1 T rq2_wptr [4] $end
$var wire 1 U rq2_wptr [3] $end
$var wire 1 V rq2_wptr [2] $end
$var wire 1 W rq2_wptr [1] $end
$var wire 1 X rq2_wptr [0] $end

$scope module sync_r2w $end
$var parameter 32 Y SIZE $end
$var reg 5 Z q2 [4:0] $end
$var wire 1 J din [4] $end
$var wire 1 K din [3] $end
$var wire 1 L din [2] $end
$var wire 1 M din [1] $end
$var wire 1 N din [0] $end
$var wire 1 8 clk $end
$var wire 1 9 rst_n $end
$var reg 5 [ q1 [4:0] $end
$upscope $end

$scope module sync_w2r $end
$var parameter 32 \ SIZE $end
$var reg 5 ] q2 [4:0] $end
$var wire 1 E din [4] $end
$var wire 1 F din [3] $end
$var wire 1 G din [2] $end
$var wire 1 H din [1] $end
$var wire 1 I din [0] $end
$var wire 1 ; clk $end
$var wire 1 < rst_n $end
$var reg 5 ^ q1 [4:0] $end
$upscope $end

$scope module fifomem $end
$var parameter 32 _ DATA_SIZE $end
$var parameter 32 ` ADDR_SIZE $end
$var parameter 32 a DEPTH $end
$var wire 1 % rdata [7] $end
$var wire 1 & rdata [6] $end
$var wire 1 ' rdata [5] $end
$var wire 1 ( rdata [4] $end
$var wire 1 ) rdata [3] $end
$var wire 1 * rdata [2] $end
$var wire 1 + rdata [1] $end
$var wire 1 , rdata [0] $end
$var wire 1 / wdata [7] $end
$var wire 1 0 wdata [6] $end
$var wire 1 1 wdata [5] $end
$var wire 1 2 wdata [4] $end
$var wire 1 3 wdata [3] $end
$var wire 1 4 wdata [2] $end
$var wire 1 5 wdata [1] $end
$var wire 1 6 wdata [0] $end
$var wire 1 = waddr [3] $end
$var wire 1 > waddr [2] $end
$var wire 1 ? waddr [1] $end
$var wire 1 @ waddr [0] $end
$var wire 1 A raddr [3] $end
$var wire 1 B raddr [2] $end
$var wire 1 C raddr [1] $end
$var wire 1 D raddr [0] $end
$var wire 1 7 wclk_en $end
$var wire 1 - wfull $end
$var wire 1 8 wclk $end
$upscope $end

$scope module rptr_empty $end
$var parameter 32 b ADDR_SIZE $end
$var reg 1 c rempty $end
$var wire 1 A raddr [3] $end
$var wire 1 B raddr [2] $end
$var wire 1 C raddr [1] $end
$var wire 1 D raddr [0] $end
$var reg 5 d rptr [4:0] $end
$var wire 1 T rq2_wptr [4] $end
$var wire 1 U rq2_wptr [3] $end
$var wire 1 V rq2_wptr [2] $end
$var wire 1 W rq2_wptr [1] $end
$var wire 1 X rq2_wptr [0] $end
$var wire 1 : rinc $end
$var wire 1 ; rclk $end
$var wire 1 < rrst_n $end
$var reg 5 e rbin [4:0] $end
$var wire 1 f rgray_next [4] $end
$var wire 1 g rgray_next [3] $end
$var wire 1 h rgray_next [2] $end
$var wire 1 i rgray_next [1] $end
$var wire 1 j rgray_next [0] $end
$var wire 1 k rbin_next [4] $end
$var wire 1 l rbin_next [3] $end
$var wire 1 m rbin_next [2] $end
$var wire 1 n rbin_next [1] $end
$var wire 1 o rbin_next [0] $end
$var wire 1 p rempty_val $end
$upscope $end

$scope module wptr_full $end
$var parameter 32 q ADDR_SIZE $end
$var reg 1 r wfull $end
$var wire 1 = waddr [3] $end
$var wire 1 > waddr [2] $end
$var wire 1 ? waddr [1] $end
$var wire 1 @ waddr [0] $end
$var reg 5 s wptr [4:0] $end
$var wire 1 O wq2_rptr [4] $end
$var wire 1 P wq2_rptr [3] $end
$var wire 1 Q wq2_rptr [2] $end
$var wire 1 R wq2_rptr [1] $end
$var wire 1 S wq2_rptr [0] $end
$var wire 1 7 winc $end
$var wire 1 8 wclk $end
$var wire 1 9 wrst_n $end
$var reg 5 t wbin [4:0] $end
$var wire 1 u wgray_next [4] $end
$var wire 1 v wgray_next [3] $end
$var wire 1 w wgray_next [2] $end
$var wire 1 x wgray_next [1] $end
$var wire 1 y wgray_next [0] $end
$var wire 1 z wbin_next [4] $end
$var wire 1 { wbin_next [3] $end
$var wire 1 | wbin_next [2] $end
$var wire 1 } wbin_next [1] $end
$var wire 1 ~ wbin_next [0] $end
$var wire 1 !! wfull_val $end
$upscope $end
$upscope $end
$upscope $end

$scope begin uvm_pkg $end
$var parameter 32 "! UVM_HDL_MAX_WIDTH $end
$var parameter 32 #! UVM_STREAMBITS $end
$var parameter 32 $! UVM_RADIX $end
$var parameter 32 %! UVM_MACRO_NUMFLAGS $end
$var parameter 32 &! UVM_DEFAULT $end
$var parameter 32 '! UVM_ALL_ON $end
$var parameter 32 (! UVM_FLAGS_ON $end
$var parameter 32 )! UVM_FLAGS_OFF $end
$var parameter 32 *! UVM_COPY $end
$var parameter 32 +! UVM_NOCOPY $end
$var parameter 32 ,! UVM_COMPARE $end
$var parameter 32 -! UVM_NOCOMPARE $end
$var parameter 32 .! UVM_PRINT $end
$var parameter 32 /! UVM_NOPRINT $end
$var parameter 32 0! UVM_RECORD $end
$var parameter 32 1! UVM_NORECORD $end
$var parameter 32 2! UVM_PACK $end
$var parameter 32 3! UVM_NOPACK $end
$var parameter 32 4! UVM_PHYSICAL $end
$var parameter 32 5! UVM_ABSTRACT $end
$var parameter 32 6! UVM_READONLY $end
$var parameter 32 7! UVM_NODEFPRINT $end
$var parameter 32 8! UVM_MACRO_EXTRAS $end
$var parameter 32 9! UVM_FLAGS $end
$var parameter 32 :! UVM_UNPACK $end
$var parameter 32 ;! UVM_CHECK_FIELDS $end
$var parameter 32 <! UVM_END_DATA_EXTRA $end
$var parameter 32 =! UVM_START_FUNCS $end
$var parameter 32 >! UVM_SET $end
$var parameter 32 ?! UVM_SETINT $end
$var parameter 32 @! UVM_SETOBJ $end
$var parameter 32 A! UVM_SETSTR $end
$var parameter 32 B! UVM_END_FUNCS $end
$var parameter 32 C! UVM_STR_CRC_POLYNOMIAL $end
$var parameter 32 D! UVM_STDOUT $end
$var parameter 32 E! UVM_LINE_WIDTH $end
$var parameter 32 F! UVM_NUM_LINES $end
$var parameter 32 G! UVM_SMALL_STRING $end
$var parameter 32 H! UVM_LARGE_STRING $end
$var reg 1 I! uvm_start_uvm_declarations $end
$var integer 32 J! uvm_global_random_seed $end
$var integer 32 K! UVM_UNBOUNDED_CONNECTIONS $end

$scope function uvm_hdl_check_path $end
$var integer 32 L! uvm_hdl_check_path $end
$upscope $end

$scope function uvm_hdl_deposit $end
$var integer 32 M! uvm_hdl_deposit $end
$var reg 1024 N! value [1023:0] $end
$upscope $end

$scope function uvm_hdl_force $end
$var integer 32 O! uvm_hdl_force $end
$var reg 1024 P! value [1023:0] $end
$upscope $end

$scope task uvm_hdl_force_time $end
$var reg 1024 Q! value [1023:0] $end
$var time 64 R! force_time $end
$upscope $end

$scope function uvm_hdl_release_and_read $end
$var integer 32 S! uvm_hdl_release_and_read $end
$var reg 1024 T! value [1023:0] $end
$upscope $end

$scope function uvm_hdl_release $end
$var integer 32 U! uvm_hdl_release $end
$upscope $end

$scope function uvm_hdl_read $end
$var integer 32 V! uvm_hdl_read $end
$var reg 1024 W! value [1023:0] $end
$upscope $end

$scope function uvm_dpi_get_next_arg_c $end
$upscope $end

$scope function uvm_dpi_get_tool_name_c $end
$upscope $end

$scope function uvm_dpi_get_tool_version_c $end
$upscope $end

$scope function uvm_dpi_get_next_arg $end
$upscope $end

$scope function uvm_dpi_get_tool_name $end
$upscope $end

$scope function uvm_dpi_get_tool_version $end
$upscope $end

$scope function uvm_dpi_regcomp $end
$upscope $end

$scope function uvm_dpi_regexec $end
$var integer 32 X! uvm_dpi_regexec $end
$upscope $end

$scope function uvm_dpi_regfree $end
$upscope $end

$scope function uvm_re_match $end
$var integer 32 Y! uvm_re_match $end
$upscope $end

$scope function uvm_dump_re_cache $end
$upscope $end

$scope function uvm_glob_to_re $end
$upscope $end

$scope function uvm_revision_string $end
$upscope $end

$scope function uvm_radix_to_string $end
$var integer 32 Z! radix $end
$upscope $end

$scope function uvm_instance_scope $end
$var reg 8 [! c [7:0] $end
$var integer 32 \! pos $end
$upscope $end

$scope function uvm_oneway_hash $end
$var integer 32 ]! uvm_oneway_hash $end
$var integer 32 ^! seed $end
$var reg 1 _! msb $end
$var reg 8 `! current_byte [7:0] $end
$var reg 32 a! crc1 [31:0] $end
$upscope $end

$scope function uvm_create_random_seed $end
$var integer 32 b! uvm_create_random_seed $end
$upscope $end

$scope function uvm_object_value_str $end
$upscope $end

$scope function uvm_leaf_scope $end
$var reg 8 c! scope_separator [7:0] $end
$var reg 8 d! bracket_match [7:0] $end
$var integer 32 e! pos $end
$var integer 32 f! bmatches $end
$upscope $end

$scope function uvm_vector_to_string $end
$var reg 4096 g! value [4095:0] $end
$var integer 32 h! size $end
$var integer 32 i! radix $end
$upscope $end

$scope function uvm_get_array_index_int $end
$var integer 32 j! uvm_get_array_index_int $end
$var reg 1 k! is_wildcard $end
$var integer 32 l! i $end
$upscope $end

$scope function uvm_get_array_index_string $end
$var reg 1 m! is_wildcard $end
$var integer 32 n! i $end
$upscope $end

$scope function uvm_is_array $end
$var reg 1 o! uvm_is_array $end
$upscope $end

$scope function uvm_has_wildcard $end
$upscope $end

$scope task run_test $end
$upscope $end

$scope function global_stop_request $end
$upscope $end

$scope function set_global_timeout $end
$var time 64 p! timeout $end
$var reg 1 q! overridable $end
$upscope $end

$scope function set_global_stop_timeout $end
$var time 64 r! timeout $end
$upscope $end

$scope function uvm_report_enabled $end
$var reg 1 s! uvm_report_enabled $end
$var integer 32 t! verbosity $end
$var reg 2 u! severity [1:0] $end
$upscope $end

$scope function uvm_report $end
$var reg 2 v! severity [1:0] $end
$var integer 32 w! verbosity $end
$var integer 32 x! line $end
$upscope $end

$scope function uvm_report_info $end
$var integer 32 y! verbosity $end
$var integer 32 z! line $end
$upscope $end

$scope function uvm_report_warning $end
$var integer 32 {! verbosity $end
$var integer 32 |! line $end
$upscope $end

$scope function uvm_report_error $end
$var integer 32 }! verbosity $end
$var integer 32 ~! line $end
$upscope $end

$scope function uvm_report_fatal $end
$var integer 32 !" verbosity $end
$var integer 32 "" line $end
$upscope $end

$scope function uvm_string_to_severity $end
$var reg 1 #" uvm_string_to_severity $end
$var reg 2 $" sev [1:0] $end
$upscope $end

$scope function uvm_string_to_action $end
$upscope $end

$scope function set_config_int $end
$var reg 4096 %" value [4095:0] $end
$upscope $end

$scope function set_config_object $end
$var reg 1 &" clone $end
$upscope $end

$scope function set_config_string $end
$upscope $end

$scope function uvm_is_match $end
$var reg 1 '" uvm_is_match $end
$upscope $end

$scope function uvm_string_to_bits $end
$var reg 115200 (" uvm_string_to_bits [115199:0] $end
$upscope $end

$scope function uvm_bits_to_string $end
$var reg 115200 )" str [115199:0] $end
$upscope $end

$scope task uvm_wait_for_nba_region $end
$var integer 32 *" nba $end
$var integer 32 +" next_nba $end
$upscope $end

$scope function uvm_split_string $end
$upscope $end

$scope function uvm_hdl_concat2string $end
$upscope $end
$upscope $end

$scope begin async_fifo_pkg $end
$var parameter 32 ," ADDR_WIDTH $end
$upscope $end

$scope begin async_fifo_top_sv_unit $end
$var parameter 32 -" ADDR_WIDTH $end
$upscope $end

$scope begin std $end
$upscope $end

$scope begin questa_uvm_pkg $end
$upscope $end
$enddefinitions $end
#0
$dumpvars
0!
0"
bx Z
bx [
bx ]
bx ^
xc
bx d
bx e
xr
bx s
bx t
0m!
0o!
0#"
b0 $"
bx ("
bx )"
bx N!
bx P!
bx Q!
bx T!
bx W!
1I!
0_!
b1110001 `!
b11010100110111011101111110011110 a!
b1 g!
0k!
0q!
0s!
b0 u!
b0 v!
bx %"
0&"
0'"
b100 ,"
b100 -"
b1000 #
b100 $
b101 Y
b101 \
b1000 _
b100 `
b10000 a
b100 b
b100 q
b10000000000 "!
b1000000000000 #!
b1111000000000000000000000000 $!
b10001 %!
b10101010101 &!
b101010101 '!
b101010101 (!
b0 )!
b1 *!
b10 +!
b100 ,!
b1000 -!
b10000 .!
b100000 /!
b1000000 0!
b10000000 1!
b100000000 2!
b1000000000 3!
b10000000000000 4!
b100000000000000 5!
b1000000000000000 6!
b10000000000000000 7!
b100000000000000000 8!
b100000000000000001 9!
b100000000000000010 :!
b100000000000000011 ;!
b100000000000000100 <!
b100000000000000101 =!
b100000000000000110 >!
b100000000000000110 ?!
b100000000000000111 @!
b100000000000001000 A!
b100000000000001000 B!
b100110000010001110110110110 C!
b1 D!
b1111000 E!
b1111000 F!
b1110111111 G!
b11100000111111111 H!
b0 Z!
b101110 c!
b0 d!
b100010 e!
b11111111111111111111111111111111 f!
b0 n!
b0 L!
b0 M!
b0 O!
b0 S!
b0 U!
b0 V!
b1 X!
b0 Y!
b1101001011000001111100000011110 J!
b101110 [!
b111 \!
b11001010100000010001101001001001 ]!
b1101001011000001111100000011110 ^!
b11110111101011011011100001000011 b!
b100000 h!
b10000000000000000000000000 i!
b0 j!
b0 l!
b111110100 t!
b0 w!
b0 x!
b11001000 y!
b11011001 z!
b0 {!
b0 |!
b0 }!
b0 ~!
b0 !"
b0 ""
b100101 *"
b100101 +"
b11111111111111111111111111111111 K!
bx R!
bx p!
bx r!
x@
x?
x>
x=
xD
xC
xB
xA
xI
xH
xG
xF
xE
xN
xM
xL
xK
xJ
xS
xR
xQ
xP
xO
xX
xW
xV
xU
xT
xj
xi
xh
xg
xf
xo
xn
xm
xl
xk
xp
xy
xx
xw
xv
xu
x~
x}
x|
x{
xz
x!!
x,
x+
x*
x)
x(
x'
x&
x%
x-
x.
x6
x5
x4
x3
x2
x1
x0
x/
x7
08
x9
x:
0;
x<
$end
#5
1!
18
b100110 +"
b100110 *"
#6
17
16
15
14
13
02
01
00
1/
09
b0 [
b0 Z
b0 s
b0 t
0r
0@
0?
0>
0=
1~
0}
0|
0{
0z
0I
0H
0G
0F
0E
0S
0R
0Q
0P
0O
0-
1y
0x
0w
0v
0u
0!!
#10
1"
0!
08
1;
b0 ^
b100111 +"
b100111 *"
#11
0:
0<
b0 ]
b0 d
b0 e
1c
0D
0C
0B
0A
0o
0n
0m
0l
0k
0N
0M
0L
0K
0J
0X
0W
0V
0U
0T
1.
0j
0i
0h
0g
0f
1p
#15
1!
18
1,
1+
1*
1)
0(
0'
0&
1%
b101000 +"
b101000 *"
#16
06
05
03
11
10
0/
19
#20
0"
0!
08
0;
#25
1!
18
b1 s
b1 t
0,
0+
0)
1'
1&
0%
1@
0~
1}
1I
1x
b101001 +"
b101001 *"
#26
07
16
01
1~
0}
0x
#30
1"
0!
08
1;
b101010 +"
b101010 *"
#31
1:
1<
#35
1!
18
b101011 +"
b101011 *"
#36
17
06
15
04
11
0~
1}
1x
09
b0 s
b0 t
0@
1~
0}
0I
0x
#40
0"
0!
08
0;
#45
1!
18
1+
0*
b101100 +"
b101100 *"
#46
07
16
05
14
00
0~
0y
19
#50
1"
0!
08
1;
b101101 +"
b101101 *"
#51
0<
#55
1!
18
b101110 +"
b101110 *"
#56
17
06
04
13
10
1/
1~
1y
09
#60
0"
0!
08
0;
#65
1!
18
0+
1)
1%
b101111 +"
b101111 *"
#66
15
12
01
00
0/
#70
1"
0!
08
1;
b110000 +"
b110000 *"
#71
1<
#75
1!
18
1+
1(
0'
0&
0%
b110001 +"
b110001 *"
#80
0"
0!
08
0;
#85
1!
18
#90
1"
0!
08
1;
b110010 +"
b110010 *"
#91
0:
#95
1!
18
#100
0"
0!
08
0;
#105
1!
18
#110
1"
0!
08
1;
b110011 +"
b110011 *"
#111
1:
#115
1!
18
#120
0"
0!
08
0;
#125
1!
18
#130
1"
0!
08
1;
b110100 +"
b110100 *"
#131
0<
#135
1!
18
#140
0"
0!
08
0;
#145
1!
18
#150
1"
0!
08
1;
b110101 +"
b110110 +"
b110111 +"
b110101 *"
b110110 *"
b110111 *"
b111000 +"
b111001 +"
b111000 *"
b111001 *"
b11110111101011011011100001010101 b!
b1100111000110011010111110111100 b!
b111010011101111101000001111011 b!
b111111100011011101010101110010 b!
b1010110011010001010000100100101 b!
b10011011001101100111110101000111 b!
b10010101001011010101010101000100 b!
b10111000011110100001101011000100 b!
b11000010011010111011010000011110 b!
b1001100110111110010110001111101 b!
b10001001110010110000001101000001 b!
b100011100111111000000010100011 b!
b110101010011010100000001110010 b!
b1110011110011010101010000011111 b!
b10100000001000000101000010110001 b!
b11011110000000011111011110011100 b!
b1010110011011011101000010101000 b!
b10000000000000010000100001 b!
b11000100111111101010111101000100 b!
b11010110100001010100000111001101 b!
b1111111110010100111010010001 b!
b10010011010110001101001101110001 b!
b10101111010011111001000011110111 b!
b1011101011110100011110011110101 b!
b10100001111011111111100011100101 b!
b11100111010110000010111010001110 b!
b10101000101001001100111001011100 b!
b10110001110011001100011010101000 b!
b101111101001111000001110001101 b!
b1110010010101101000000010011111 b!
b1001110100100000101110000111 b!
b11010011101101111111101001010010 b!
b11001001101000100100010000010111 b!
b1111101111111001001110011010101 b!
b101011101010100111100010000001 b!
b10111011110100100101001001110100 b!
b11000100001111010011101100100010 b!
b1001011000111001111101011110110 b!
b11110100111010000111011001111110 b!
b1111111111111000010000111100 b!
b11100000001101010110011010111101 b!
b1000001101100110010011110111111 b!
b10000011110111011011000101001110 b!
b1110001101110001111101101110100 b!
b10110110001011101110001111010110 b!
b11111001111100110111111101010110 b!
b10100010000010011100111101111010 b!
b111000011000110011100110101111 b!
b11011100000111001000010000111110 b!
b11110111101011011011100001101000 b!
b1100111000110011010111111001111 b!
b111010011101111101000010001110 b!
b111111100011011101010110000101 b!
b1010110011010001010000100111000 b!
b10011011001101100111110101011010 b!
b10010101001011010101010101010111 b!
b10111000011110100001101011010111 b!
b11000010011010111011010000110001 b!
b1001100110111110010110010010000 b!
b10001001110010110000001101010100 b!
b100011100111111000000010110110 b!
b110101010011010100000010000101 b!
b1110011110011010101010000110010 b!
b10100000001000000101000011000100 b!
b11011110000000011111011110101111 b!
b1010110011011011101000010111011 b!
b10000000000000010000110100 b!
b11000100111111101010111101010111 b!
b11010110100001010100000111100000 b!
b1111111110010100111010100100 b!
b10010011010110001101001110000100 b!
b10101111010011111001000100001010 b!
b1011101011110100011110100001000 b!
b10100001111011111111100011111000 b!
b11100111010110000010111010100001 b!
b10101000101001001100111001101111 b!
b10110001110011001100011010111011 b!
b101111101001111000001110100000 b!
b1110010010101101000000010110010 b!
b1001110100100000101110011010 b!
b11010011101101111111101001100101 b!
b11001001101000100100010000101010 b!
b1111101111111001001110011101000 b!
b101011101010100111100010010100 b!
b10111011110100100101001010000111 b!
b11000100001111010011101100110101 b!
b1001011000111001111101100001001 b!
b11110100111010000111011010010001 b!
b1111111111111000010001001111 b!
b11100000001101010110011011010000 b!
b1000001101100110010011111010010 b!
b10000011110111011011000101100001 b!
b1110001101110001111101110000111 b!
b10110110001011101110001111101001 b!
b11111001111100110111111101101001 b!
b10100010000010011100111110001101 b!
b111000011000110011100111000010 b!
b11011100000111001000010001010001 b!
b11110111101011011011100001111100 b!
b1100111000110011010111111100011 b!
b111010011101111101000010100010 b!
b111111100011011101010110011001 b!
b1010110011010001010000101001100 b!
b10011011001101100111110101101110 b!
b10010101001011010101010101101011 b!
b10111000011110100001101011101011 b!
b11000010011010111011010001000101 b!
b1001100110111110010110010100100 b!
b10001001110010110000001101101000 b!
b100011100111111000000011001010 b!
b110101010011010100000010011001 b!
b1110011110011010101010001000110 b!
b10100000001000000101000011011000 b!
b11011110000000011111011111000011 b!
b1010110011011011101000011001111 b!
b10000000000000010001001000 b!
b11000100111111101010111101101011 b!
b11010110100001010100000111110100 b!
b1111111110010100111010111000 b!
b10010011010110001101001110011000 b!
b10101111010011111001000100011110 b!
b1011101011110100011110100011100 b!
b10100001111011111111100100001100 b!
b11100111010110000010111010110101 b!
b10101000101001001100111010000011 b!
b10110001110011001100011011001111 b!
b101111101001111000001110110100 b!
b1110010010101101000000011000110 b!
b1001110100100000101110101110 b!
b11010011101101111111101001111001 b!
b11001001101000100100010000111110 b!
b1111101111111001001110011111100 b!
b101011101010100111100010101000 b!
b10111011110100100101001010011011 b!
b11000100001111010011101101001001 b!
b1001011000111001111101100011101 b!
b11110100111010000111011010100101 b!
b1111111111111000010001100011 b!
b11100000001101010110011011100100 b!
b1000001101100110010011111100110 b!
b10000011110111011011000101110101 b!
b1110001101110001111101110011011 b!
b10110110001011101110001111111101 b!
b11111001111100110111111101111101 b!
b10100010000010011100111110100001 b!
b111000011000110011100111010110 b!
b11011100000111001000010001100101 b!
b11011100000111001000010001111010 b!
b111000011000110011100111101011 b!
b10100010000010011100111110110110 b!
b11010110100001010100001000001001 b!
b111010011101111101000010110111 b!
b11110111101011011011100010010001 b!
b1100111000110011010111111111000 b!
b1010110011010001010000101100001 b!
b111111100011011101010110101110 b!
b11000100111111101010111110000000 b!
b1001100110111110010110010111001 b!
b10011011001101100111110110000011 b!
b10010101001011010101010110000000 b!
b10111000011110100001101100000000 b!
b11000010011010111011010001011010 b!
b10001001110010110000001101111101 b!
b100011100111111000000011011111 b!
b10000000000000010001011101 b!
b110101010011010100000010101110 b!
b1110011110011010101010001011011 b!
b10100000001000000101000011101101 b!
b11011110000000011111011111011000 b!
b1010110011011011101000011100100 b!
b10101111010011111001000100110011 b!
b1111111110010100111011001101 b!
b10010011010110001101001110101101 b!
b11100111010110000010111011001010 b!
b1011101011110100011110100110001 b!
b10100001111011111111100100100001 b!
b11111001111100110111111110010010 b!
b101111101001111000001111001001 b!
b10101000101001001100111010011000 b!
b10110001110011001100011011100100 b!
b1001110100100000101111000011 b!
b1110010010101101000000011011011 b!
b10110110001011101110010000010010 b!
b10111011110100100101001010110000 b!
b11010011101101111111101010001110 b!
b11001001101000100100010001010011 b!
b1111101111111001001110100010001 b!
b101011101010100111100010111101 b!
b11000100001111010011101101011110 b!
b1001011000111001111101100110010 b!
b1110001101110001111101110110000 b!
b11110100111010000111011010111010 b!
b1111111111111000010001111000 b!
b11100000001101010110011011111001 b!
b1000001101100110010011111111011 b!
b10000011110111011011000110001010 b!
