src/wave.vcd
$date
	Fri Oct  3 14:55:09 2025
$end
$version
	QuestaSim Version 10.6c
$end
$timescale
	1ns
$end

$scope module uvm_root $end
$upscope $end

$scope module top $end
$var reg 1 ! write_clk $end
$var reg 1 " read_clk $end

$scope module dut $end
$var parameter 32 # DSIZE $end
$var parameter 32 $ ASIZE $end
$var wire 1 % rdata [7] $end
$var wire 1 & rdata [6] $end
$var wire 1 ' rdata [5] $end
$var wire 1 ( rdata [4] $end
$var wire 1 ) rdata [3] $end
$var wire 1 * rdata [2] $end
$var wire 1 + rdata [1] $end
$var wire 1 , rdata [0] $end
$var wire 1 - wfull $end
$var wire 1 . rempty $end
$var wire 1 / wdata [7] $end
$var wire 1 0 wdata [6] $end
$var wire 1 1 wdata [5] $end
$var wire 1 2 wdata [4] $end
$var wire 1 3 wdata [3] $end
$var wire 1 4 wdata [2] $end
$var wire 1 5 wdata [1] $end
$var wire 1 6 wdata [0] $end
$var wire 1 7 winc $end
$var wire 1 8 wclk $end
$var wire 1 9 wrst_n $end
$var wire 1 : rinc $end
$var wire 1 ; rclk $end
$var wire 1 < rrst_n $end
$var wire 1 = waddr [3] $end
$var wire 1 > waddr [2] $end
$var wire 1 ? waddr [1] $end
$var wire 1 @ waddr [0] $end
$var wire 1 A raddr [3] $end
$var wire 1 B raddr [2] $end
$var wire 1 C raddr [1] $end
$var wire 1 D raddr [0] $end
$var wire 1 E wptr [4] $end
$var wire 1 F wptr [3] $end
$var wire 1 G wptr [2] $end
$var wire 1 H wptr [1] $end
$var wire 1 I wptr [0] $end
$var wire 1 J rptr [4] $end
$var wire 1 K rptr [3] $end
$var wire 1 L rptr [2] $end
$var wire 1 M rptr [1] $end
$var wire 1 N rptr [0] $end
$var wire 1 O wq2_rptr [4] $end
$var wire 1 P wq2_rptr [3] $end
$var wire 1 Q wq2_rptr [2] $end
$var wire 1 R wq2_rptr [1] $end
$var wire 1 S wq2_rptr [0] $end
$var wire 1 T rq2_wptr [4] $end
$var wire 1 U rq2_wptr [3] $end
$var wire 1 V rq2_wptr [2] $end
$var wire 1 W rq2_wptr [1] $end
$var wire 1 X rq2_wptr [0] $end

$scope module sync_r2w $end
$var parameter 32 Y SIZE $end
$var reg 5 Z q2 [4:0] $end
$var wire 1 J din [4] $end
$var wire 1 K din [3] $end
$var wire 1 L din [2] $end
$var wire 1 M din [1] $end
$var wire 1 N din [0] $end
$var wire 1 8 clk $end
$var wire 1 9 rst_n $end
$var reg 5 [ q1 [4:0] $end
$upscope $end

$scope module sync_w2r $end
$var parameter 32 \ SIZE $end
$var reg 5 ] q2 [4:0] $end
$var wire 1 E din [4] $end
$var wire 1 F din [3] $end
$var wire 1 G din [2] $end
$var wire 1 H din [1] $end
$var wire 1 I din [0] $end
$var wire 1 ; clk $end
$var wire 1 < rst_n $end
$var reg 5 ^ q1 [4:0] $end
$upscope $end

$scope module fifomem $end
$var parameter 32 _ DATA_SIZE $end
$var parameter 32 ` ADDR_SIZE $end
$var parameter 32 a DEPTH $end
$var wire 1 % rdata [7] $end
$var wire 1 & rdata [6] $end
$var wire 1 ' rdata [5] $end
$var wire 1 ( rdata [4] $end
$var wire 1 ) rdata [3] $end
$var wire 1 * rdata [2] $end
$var wire 1 + rdata [1] $end
$var wire 1 , rdata [0] $end
$var wire 1 / wdata [7] $end
$var wire 1 0 wdata [6] $end
$var wire 1 1 wdata [5] $end
$var wire 1 2 wdata [4] $end
$var wire 1 3 wdata [3] $end
$var wire 1 4 wdata [2] $end
$var wire 1 5 wdata [1] $end
$var wire 1 6 wdata [0] $end
$var wire 1 = waddr [3] $end
$var wire 1 > waddr [2] $end
$var wire 1 ? waddr [1] $end
$var wire 1 @ waddr [0] $end
$var wire 1 A raddr [3] $end
$var wire 1 B raddr [2] $end
$var wire 1 C raddr [1] $end
$var wire 1 D raddr [0] $end
$var wire 1 7 wclk_en $end
$var wire 1 - wfull $end
$var wire 1 8 wclk $end
$upscope $end

$scope module rptr_empty $end
$var parameter 32 b ADDR_SIZE $end
$var reg 1 c rempty $end
$var wire 1 A raddr [3] $end
$var wire 1 B raddr [2] $end
$var wire 1 C raddr [1] $end
$var wire 1 D raddr [0] $end
$var reg 5 d rptr [4:0] $end
$var wire 1 T rq2_wptr [4] $end
$var wire 1 U rq2_wptr [3] $end
$var wire 1 V rq2_wptr [2] $end
$var wire 1 W rq2_wptr [1] $end
$var wire 1 X rq2_wptr [0] $end
$var wire 1 : rinc $end
$var wire 1 ; rclk $end
$var wire 1 < rrst_n $end
$var reg 5 e rbin [4:0] $end
$var wire 1 f rgray_next [4] $end
$var wire 1 g rgray_next [3] $end
$var wire 1 h rgray_next [2] $end
$var wire 1 i rgray_next [1] $end
$var wire 1 j rgray_next [0] $end
$var wire 1 k rbin_next [4] $end
$var wire 1 l rbin_next [3] $end
$var wire 1 m rbin_next [2] $end
$var wire 1 n rbin_next [1] $end
$var wire 1 o rbin_next [0] $end
$var wire 1 p rempty_val $end
$upscope $end

$scope module wptr_full $end
$var parameter 32 q ADDR_SIZE $end
$var reg 1 r wfull $end
$var wire 1 = waddr [3] $end
$var wire 1 > waddr [2] $end
$var wire 1 ? waddr [1] $end
$var wire 1 @ waddr [0] $end
$var reg 5 s wptr [4:0] $end
$var wire 1 O wq2_rptr [4] $end
$var wire 1 P wq2_rptr [3] $end
$var wire 1 Q wq2_rptr [2] $end
$var wire 1 R wq2_rptr [1] $end
$var wire 1 S wq2_rptr [0] $end
$var wire 1 7 winc $end
$var wire 1 8 wclk $end
$var wire 1 9 wrst_n $end
$var reg 5 t wbin [4:0] $end
$var wire 1 u wgray_next [4] $end
$var wire 1 v wgray_next [3] $end
$var wire 1 w wgray_next [2] $end
$var wire 1 x wgray_next [1] $end
$var wire 1 y wgray_next [0] $end
$var wire 1 z wbin_next [4] $end
$var wire 1 { wbin_next [3] $end
$var wire 1 | wbin_next [2] $end
$var wire 1 } wbin_next [1] $end
$var wire 1 ~ wbin_next [0] $end
$var wire 1 !! wfull_val $end
$upscope $end
$upscope $end
$upscope $end

$scope begin uvm_pkg $end
$var parameter 32 "! UVM_HDL_MAX_WIDTH $end
$var parameter 32 #! UVM_STREAMBITS $end
$var parameter 32 $! UVM_RADIX $end
$var parameter 32 %! UVM_MACRO_NUMFLAGS $end
$var parameter 32 &! UVM_DEFAULT $end
$var parameter 32 '! UVM_ALL_ON $end
$var parameter 32 (! UVM_FLAGS_ON $end
$var parameter 32 )! UVM_FLAGS_OFF $end
$var parameter 32 *! UVM_COPY $end
$var parameter 32 +! UVM_NOCOPY $end
$var parameter 32 ,! UVM_COMPARE $end
$var parameter 32 -! UVM_NOCOMPARE $end
$var parameter 32 .! UVM_PRINT $end
$var parameter 32 /! UVM_NOPRINT $end
$var parameter 32 0! UVM_RECORD $end
$var parameter 32 1! UVM_NORECORD $end
$var parameter 32 2! UVM_PACK $end
$var parameter 32 3! UVM_NOPACK $end
$var parameter 32 4! UVM_PHYSICAL $end
$var parameter 32 5! UVM_ABSTRACT $end
$var parameter 32 6! UVM_READONLY $end
$var parameter 32 7! UVM_NODEFPRINT $end
$var parameter 32 8! UVM_MACRO_EXTRAS $end
$var parameter 32 9! UVM_FLAGS $end
$var parameter 32 :! UVM_UNPACK $end
$var parameter 32 ;! UVM_CHECK_FIELDS $end
$var parameter 32 <! UVM_END_DATA_EXTRA $end
$var parameter 32 =! UVM_START_FUNCS $end
$var parameter 32 >! UVM_SET $end
$var parameter 32 ?! UVM_SETINT $end
$var parameter 32 @! UVM_SETOBJ $end
$var parameter 32 A! UVM_SETSTR $end
$var parameter 32 B! UVM_END_FUNCS $end
$var parameter 32 C! UVM_STR_CRC_POLYNOMIAL $end
$var parameter 32 D! UVM_STDOUT $end
$var parameter 32 E! UVM_LINE_WIDTH $end
$var parameter 32 F! UVM_NUM_LINES $end
$var parameter 32 G! UVM_SMALL_STRING $end
$var parameter 32 H! UVM_LARGE_STRING $end
$var reg 1 I! uvm_start_uvm_declarations $end
$var integer 32 J! uvm_global_random_seed $end
$var integer 32 K! UVM_UNBOUNDED_CONNECTIONS $end

$scope function uvm_hdl_check_path $end
$var integer 32 L! uvm_hdl_check_path $end
$upscope $end

$scope function uvm_hdl_deposit $end
$var integer 32 M! uvm_hdl_deposit $end
$var reg 1024 N! value [1023:0] $end
$upscope $end

$scope function uvm_hdl_force $end
$var integer 32 O! uvm_hdl_force $end
$var reg 1024 P! value [1023:0] $end
$upscope $end

$scope task uvm_hdl_force_time $end
$var reg 1024 Q! value [1023:0] $end
$var time 64 R! force_time $end
$upscope $end

$scope function uvm_hdl_release_and_read $end
$var integer 32 S! uvm_hdl_release_and_read $end
$var reg 1024 T! value [1023:0] $end
$upscope $end

$scope function uvm_hdl_release $end
$var integer 32 U! uvm_hdl_release $end
$upscope $end

$scope function uvm_hdl_read $end
$var integer 32 V! uvm_hdl_read $end
$var reg 1024 W! value [1023:0] $end
$upscope $end

$scope function uvm_dpi_get_next_arg_c $end
$upscope $end

$scope function uvm_dpi_get_tool_name_c $end
$upscope $end

$scope function uvm_dpi_get_tool_version_c $end
$upscope $end

$scope function uvm_dpi_get_next_arg $end
$upscope $end

$scope function uvm_dpi_get_tool_name $end
$upscope $end

$scope function uvm_dpi_get_tool_version $end
$upscope $end

$scope function uvm_dpi_regcomp $end
$upscope $end

$scope function uvm_dpi_regexec $end
$var integer 32 X! uvm_dpi_regexec $end
$upscope $end

$scope function uvm_dpi_regfree $end
$upscope $end

$scope function uvm_re_match $end
$var integer 32 Y! uvm_re_match $end
$upscope $end

$scope function uvm_dump_re_cache $end
$upscope $end

$scope function uvm_glob_to_re $end
$upscope $end

$scope function uvm_revision_string $end
$upscope $end

$scope function uvm_radix_to_string $end
$var integer 32 Z! radix $end
$upscope $end

$scope function uvm_instance_scope $end
$var reg 8 [! c [7:0] $end
$var integer 32 \! pos $end
$upscope $end

$scope function uvm_oneway_hash $end
$var integer 32 ]! uvm_oneway_hash $end
$var integer 32 ^! seed $end
$var reg 1 _! msb $end
$var reg 8 `! current_byte [7:0] $end
$var reg 32 a! crc1 [31:0] $end
$upscope $end

$scope function uvm_create_random_seed $end
$var integer 32 b! uvm_create_random_seed $end
$upscope $end

$scope function uvm_object_value_str $end
$upscope $end

$scope function uvm_leaf_scope $end
$var reg 8 c! scope_separator [7:0] $end
$var reg 8 d! bracket_match [7:0] $end
$var integer 32 e! pos $end
$var integer 32 f! bmatches $end
$upscope $end

$scope function uvm_vector_to_string $end
$var reg 4096 g! value [4095:0] $end
$var integer 32 h! size $end
$var integer 32 i! radix $end
$upscope $end

$scope function uvm_get_array_index_int $end
$var integer 32 j! uvm_get_array_index_int $end
$var reg 1 k! is_wildcard $end
$var integer 32 l! i $end
$upscope $end

$scope function uvm_get_array_index_string $end
$var reg 1 m! is_wildcard $end
$var integer 32 n! i $end
$upscope $end

$scope function uvm_is_array $end
$var reg 1 o! uvm_is_array $end
$upscope $end

$scope function uvm_has_wildcard $end
$upscope $end

$scope task run_test $end
$upscope $end

$scope function global_stop_request $end
$upscope $end

$scope function set_global_timeout $end
$var time 64 p! timeout $end
$var reg 1 q! overridable $end
$upscope $end

$scope function set_global_stop_timeout $end
$var time 64 r! timeout $end
$upscope $end

$scope function uvm_report_enabled $end
$var reg 1 s! uvm_report_enabled $end
$var integer 32 t! verbosity $end
$var reg 2 u! severity [1:0] $end
$upscope $end

$scope function uvm_report $end
$var reg 2 v! severity [1:0] $end
$var integer 32 w! verbosity $end
$var integer 32 x! line $end
$upscope $end

$scope function uvm_report_info $end
$var integer 32 y! verbosity $end
$var integer 32 z! line $end
$upscope $end

$scope function uvm_report_warning $end
$var integer 32 {! verbosity $end
$var integer 32 |! line $end
$upscope $end

$scope function uvm_report_error $end
$var integer 32 }! verbosity $end
$var integer 32 ~! line $end
$upscope $end

$scope function uvm_report_fatal $end
$var integer 32 !" verbosity $end
$var integer 32 "" line $end
$upscope $end

$scope function uvm_string_to_severity $end
$var reg 1 #" uvm_string_to_severity $end
$var reg 2 $" sev [1:0] $end
$upscope $end

$scope function uvm_string_to_action $end
$upscope $end

$scope function set_config_int $end
$var reg 4096 %" value [4095:0] $end
$upscope $end

$scope function set_config_object $end
$var reg 1 &" clone $end
$upscope $end

$scope function set_config_string $end
$upscope $end

$scope function uvm_is_match $end
$var reg 1 '" uvm_is_match $end
$upscope $end

$scope function uvm_string_to_bits $end
$var reg 115200 (" uvm_string_to_bits [115199:0] $end
$upscope $end

$scope function uvm_bits_to_string $end
$var reg 115200 )" str [115199:0] $end
$upscope $end

$scope task uvm_wait_for_nba_region $end
$var integer 32 *" nba $end
$var integer 32 +" next_nba $end
$upscope $end

$scope function uvm_split_string $end
$upscope $end

$scope function uvm_hdl_concat2string $end
$upscope $end
$upscope $end

$scope begin async_fifo_pkg $end
$var parameter 32 ," ADDR_WIDTH $end
$upscope $end

$scope begin async_fifo_top_sv_unit $end
$var parameter 32 -" ADDR_WIDTH $end
$upscope $end

$scope begin std $end
$upscope $end

$scope begin questa_uvm_pkg $end
$upscope $end
$enddefinitions $end
#0
$dumpvars
0!
0"
bx Z
bx [
bx ]
bx ^
xc
bx d
bx e
xr
bx s
bx t
0m!
0o!
0#"
b0 $"
bx ("
bx )"
bx N!
bx P!
bx Q!
bx T!
bx W!
1I!
1_!
b1110001 `!
b11111011111001110000010110001001 a!
bx g!
0k!
0q!
0s!
b0 u!
b0 v!
bx %"
0&"
0'"
b100 ,"
b100 -"
b1000 #
b100 $
b101 Y
b101 \
b1000 _
b100 `
b10000 a
b100 b
b100 q
b10000000000 "!
b1000000000000 #!
b1111000000000000000000000000 $!
b10001 %!
b10101010101 &!
b101010101 '!
b101010101 (!
b0 )!
b1 *!
b10 +!
b100 ,!
b1000 -!
b10000 .!
b100000 /!
b1000000 0!
b10000000 1!
b100000000 2!
b1000000000 3!
b10000000000000 4!
b100000000000000 5!
b1000000000000000 6!
b10000000000000000 7!
b100000000000000000 8!
b100000000000000001 9!
b100000000000000010 :!
b100000000000000011 ;!
b100000000000000100 <!
b100000000000000101 =!
b100000000000000110 >!
b100000000000000110 ?!
b100000000000000111 @!
b100000000000001000 A!
b100000000000001000 B!
b100110000010001110110110110 C!
b1 D!
b1111000 E!
b1111000 F!
b1110111111 G!
b11100000111111111 H!
b0 Z!
b0 c!
b0 d!
b0 e!
b0 f!
b0 n!
b0 L!
b0 M!
b0 O!
b0 S!
b0 U!
b0 V!
b1 X!
b0 Y!
b1101001011000001111100000011110 J!
b101110 [!
b111 \!
b11100000010110110001000000100010 ]!
b1101001011000001111100000011110 ^!
b11110111101011011011100001000011 b!
b0 h!
b0 i!
b0 j!
b0 l!
b111110100 t!
b0 w!
b0 x!
b11001000 y!
b11011001 z!
b0 {!
b0 |!
b0 }!
b0 ~!
b0 !"
b0 ""
b100011 *"
b100011 +"
b11111111111111111111111111111111 K!
bx R!
bx p!
bx r!
x@
x?
x>
x=
xD
xC
xB
xA
xI
xH
xG
xF
xE
xN
xM
xL
xK
xJ
xS
xR
xQ
xP
xO
xX
xW
xV
xU
xT
xj
xi
xh
xg
xf
xo
xn
xm
xl
xk
xp
xy
xx
xw
xv
xu
x~
x}
x|
x{
xz
x!!
x,
x+
x*
x)
x(
x'
x&
x%
x-
x.
x6
x5
x4
x3
x2
x1
x0
x/
x7
08
x9
x:
0;
x<
$end
#5
1!
18
b100100 +"
b100100 *"
#6
07
16
15
04
13
02
01
00
0/
09
b0 [
b0 Z
b0 s
b0 t
0r
0@
0?
0>
0=
0~
0}
0|
0{
0z
0I
0H
0G
0F
0E
0S
0R
0Q
0P
0O
0-
0y
0x
0w
0v
0u
0!!
#10
1"
0!
08
1;
b0 ^
b100101 +"
b100101 *"
#11
0:
0<
b0 ]
b0 d
b0 e
1c
0D
0C
0B
0A
0o
0n
0m
0l
0k
0N
0M
0L
0K
0J
0X
0W
0V
0U
0T
1.
0j
0i
0h
0g
0f
1p
#15
1!
18
b100110 +"
b111010011011101110001110001111 b!
b111010011011101110001110010010 b!
b100110 *"
#16
05
14
03
11
1/
#20
0"
0!
08
0;
#25
1!
18
b100111 +"
b111010011011101110001110010110 b!
b111010011011101110001110011011 b!
b100111 *"
#26
12
01
#30
1"
0!
08
1;
b101000 +"
b11100000010110110001000000100101 b!
b11100000010110110001000000101000 b!
b101000 *"
#35
1!
18
b101001 +"
b111010011011101110001110100001 b!
b111010011011101110001110101000 b!
b101001 *"
#36
06
15
04
10
#40
0"
0!
08
0;
#45
1!
18
b101010 +"
b111010011011101110001110110000 b!
b111010011011101110001110111001 b!
b101010 *"
#46
16
14
0/
#50
1"
0!
08
1;
b101011 +"
b11100000010110110001000000101100 b!
b11100000010110110001000000110001 b!
b101011 *"
#55
1!
18
b101100 +"
b111010011011101110001111000011 b!
b111010011011101110001111001110 b!
b101100 *"
#56
05
11
00
#60
0"
0!
08
0;
#65
1!
18
b101101 +"
b111010011011101110001111011010 b!
b111010011011101110001111100111 b!
b101101 *"
#66
06
13
02
10
1/
#70
1"
0!
08
1;
b101110 +"
b11100000010110110001000000110111 b!
b11100000010110110001000000111110 b!
b101110 *"
#75
1!
18
b101111 +"
b111010011011101110001111110101 b!
b111010011011101110010000000100 b!
b101111 *"
#76
16
03
#80
0"
0!
08
0;
#85
1!
18
b110000 +"
b110000 *"
#90
1"
0!
08
1;
b110001 +"
b11100000010110110001000001000110 b!
b11100000010110110001000001001111 b!
b110001 *"
#95
1!
18
#100
0"
0!
08
0;
#105
1!
18
#110
1"
0!
08
1;
b110010 +"
b11100000010110110001000001011001 b!
b11100000010110110001000001100100 b!
b110010 *"
#115
1!
18
#120
0"
0!
08
0;
#125
1!
18
#130
1"
0!
08
1;
b110011 +"
b11100000010110110001000001110000 b!
b11100000010110110001000001111101 b!
b110011 *"
#135
1!
18
#140
0"
0!
08
0;
#145
1!
18
#150
1"
0!
08
1;
b110100 +"
b11100000010110110001000010001011 b!
b11100000010110110001000010011010 b!
b110100 *"
#155
1!
18
#160
0"
0!
08
0;
#165
1!
18
